Change Component Footprint: Designator=U38 Old Footprint=USB_A_SH New Footprint=PQFN50P500X500X100_HS-33N
Added Pin To Net: NetName=USBRESET Pin=U38-12
Added Pin To Net: NetName=SG8CK Pin=U38-13
Added Pin To Net: NetName=CSUSB Pin=U38-14
Added Pin To Net: NetName=USBMISO Pin=U38-15
Added Pin To Net: NetName=SG8MOSI Pin=U38-16
Added Pin To Net: NetName=GND Pin=U38-19
Added Pin To Net: NetName=USBDNEG Pin=U38-20
Added Pin To Net: NetName=USBDPOS Pin=U38-21
Added Pin To Net: NetName=V3V3 Pin=U38-23
Added Pin To Net: NetName=CLK12 Pin=U38-24
Added Pin To Net: NetName=USBOC Pin=U38-26
