Added Pin To Net: NetName=GND Pin=U1-A1
Added Pin To Net: NetName=S13GPIO7 Pin=U1-A2
Added Pin To Net: NetName=S13GPIO2 Pin=U1-A3
Added Pin To Net: NetName=S14GPIO6 Pin=U1-A4
Added Pin To Net: NetName=S14TXD Pin=U1-A5
Added Pin To Net: NetName=S14MOSI Pin=U1-A6
Added Pin To Net: NetName=S14CK Pin=U1-A7
Added Pin To Net: NetName=S15GPIO3 Pin=U1-A8
Added Pin To Net: NetName=S15GPIO4 Pin=U1-A9
Added Pin To Net: NetName=S15GPIO2 Pin=U1-A10
Added Pin To Net: NetName=S15MOSI Pin=U1-A11
Added Pin To Net: NetName=S15CK Pin=U1-A12
Added Pin To Net: NetName=S16GPIO7 Pin=U1-A13
Added Pin To Net: NetName=S16GPIO1 Pin=U1-A14
Added Pin To Net: NetName=S16TXD Pin=U1-A15
Added Pin To Net: NetName=S16MISO Pin=U1-A16
Added Pin To Net: NetName=S16MOSI Pin=U1-A17
Added Pin To Net: NetName=GND Pin=U1-A22
Added Pin To Net: NetName=S13GPIO1 Pin=U1-AA1
Added Pin To Net: NetName=S13MISO Pin=U1-AA2
Added Pin To Net: NetName=S5MISO Pin=U1-AA3
Added Pin To Net: NetName=S5GPIO2 Pin=U1-AA4
Added Pin To Net: NetName=S6RXD Pin=U1-AA6
Added Pin To Net: NetName=GND Pin=U1-AA7
Added Pin To Net: NetName=S6GPIO2 Pin=U1-AA8
Added Pin To Net: NetName=S6GPIO8 Pin=U1-AA10
Added Pin To Net: NetName=GND Pin=U1-AA11
Added Pin To Net: NetName=S7TXD Pin=U1-AA12
Added Pin To Net: NetName=S7GPIO5 Pin=U1-AA14
Added Pin To Net: NetName=S7GPIO8 Pin=U1-AA15
Added Pin To Net: NetName=GND Pin=U1-AA16
Added Pin To Net: NetName=S8MISO Pin=U1-AA17
Added Pin To Net: NetName=S8GPIO7 Pin=U1-AA19
Added Pin To Net: NetName=S9CK Pin=U1-AA21
Added Pin To Net: NetName=S1SCL Pin=U1-AA22
Added Pin To Net: NetName=GND Pin=U1-AB1
Added Pin To Net: NetName=S5GPIO1 Pin=U1-AB2
Added Pin To Net: NetName=S5GPIO3 Pin=U1-AB3
Added Pin To Net: NetName=S5GPIO7 Pin=U1-AB4
Added Pin To Net: NetName=S5GPIO6 Pin=U1-AB5
Added Pin To Net: NetName=S6SCL Pin=U1-AB6
Added Pin To Net: NetName=S6ERR Pin=U1-AB7
Added Pin To Net: NetName=S6GPIO1 Pin=U1-AB8
Added Pin To Net: NetName=S6GPIO5 Pin=U1-AB9
Added Pin To Net: NetName=S6GPIO7 Pin=U1-AB10
Added Pin To Net: NetName=S7SIG Pin=U1-AB11
Added Pin To Net: NetName=S7SDA Pin=U1-AB12
Added Pin To Net: NetName=S7GPIO3 Pin=U1-AB13
Added Pin To Net: NetName=S7GPIO4 Pin=U1-AB14
Added Pin To Net: NetName=S8SIG Pin=U1-AB15
Added Pin To Net: NetName=S8SDA Pin=U1-AB16
Added Pin To Net: NetName=S8GPIO2 Pin=U1-AB17
Added Pin To Net: NetName=S8GPIO1 Pin=U1-AB18
Added Pin To Net: NetName=S8GPIO8 Pin=U1-AB19
Added Pin To Net: NetName=S9ERR Pin=U1-AB21
Added Pin To Net: NetName=GND Pin=U1-AB22
Added Pin To Net: NetName=S9GPIO1 Pin=U1-B1
Added Pin To Net: NetName=S13GPIO8 Pin=U1-B2
Added Pin To Net: NetName=S13GPIO1 Pin=U1-B3
Added Pin To Net: NetName=S14GPIO5 Pin=U1-B4
Added Pin To Net: NetName=S14MISO Pin=U1-B6
Added Pin To Net: NetName=GND Pin=U1-B7
Added Pin To Net: NetName=S14RXD Pin=U1-B8
Added Pin To Net: NetName=S15GPIO8 Pin=U1-B9
Added Pin To Net: NetName=S15SDA Pin=U1-B11
Added Pin To Net: NetName=GND Pin=U1-B12
Added Pin To Net: NetName=S16GPIO8 Pin=U1-B13
Added Pin To Net: NetName=S16GPIO2 Pin=U1-B15
Added Pin To Net: NetName=GND Pin=U1-B16
Added Pin To Net: NetName=S16CK Pin=U1-B17
Added Pin To Net: NetName=S5SIG Pin=U1-B21
Added Pin To Net: NetName=S5SCL Pin=U1-B22
Added Pin To Net: NetName=S9TXD Pin=U1-C1
Added Pin To Net: NetName=S9MISO Pin=U1-C2
Added Pin To Net: NetName=GND Pin=U1-C3
Added Pin To Net: NetName=S14GPIO8 Pin=U1-C5
Added Pin To Net: NetName=S14GPIO2 Pin=U1-C6
Added Pin To Net: NetName=S14ERR Pin=U1-C7
Added Pin To Net: NetName=S14SCL Pin=U1-C8
Added Pin To Net: NetName=S15GPIO7 Pin=U1-C9
Added Pin To Net: NetName=S15GPIO1 Pin=U1-C10
Added Pin To Net: NetName=S15ERR Pin=U1-C11
Added Pin To Net: NetName=S15RXD Pin=U1-C12
Added Pin To Net: NetName=S16GPIO5 Pin=U1-C13
Added Pin To Net: NetName=S16RXD Pin=U1-C14
Added Pin To Net: NetName=S16ERR Pin=U1-C15
Added Pin To Net: NetName=GND Pin=U1-C20
Added Pin To Net: NetName=S4GPIO7 Pin=U1-C21
Added Pin To Net: NetName=S4GPIO8 Pin=U1-C22
Added Pin To Net: NetName=S9GPIO7 Pin=U1-D1
Added Pin To Net: NetName=S9SDA Pin=U1-D2
Added Pin To Net: NetName=S9GPIO3 Pin=U1-D3
Added Pin To Net: NetName=S14GPIO7 Pin=U1-D5
Added Pin To Net: NetName=S14GPIO1 Pin=U1-D6
Added Pin To Net: NetName=S14SDA Pin=U1-D7
Added Pin To Net: NetName=S14GPIO3 Pin=U1-D8
Added Pin To Net: NetName=GND Pin=U1-D9
Added Pin To Net: NetName=S15GPIO6 Pin=U1-D10
Added Pin To Net: NetName=S15MISO Pin=U1-D11
Added Pin To Net: NetName=S16GPIO6 Pin=U1-D13
Added Pin To Net: NetName=GND Pin=U1-D14
Added Pin To Net: NetName=S16SDA Pin=U1-D15
Added Pin To Net: NetName=S4GPIO5 Pin=U1-D20
Added Pin To Net: NetName=S4GPIO6 Pin=U1-D21
Added Pin To Net: NetName=S4GPIO3 Pin=U1-D22
Added Pin To Net: NetName=S9GPIO6 Pin=U1-E1
Added Pin To Net: NetName=S9GPIO8 Pin=U1-E3
Added Pin To Net: NetName=S9GPIO2 Pin=U1-E4
Added Pin To Net: NetName=S13GPIO5 Pin=U1-E6
Added Pin To Net: NetName=S13GPIO4 Pin=U1-E7
Added Pin To Net: NetName=S14GPIO4 Pin=U1-E9
Added Pin To Net: NetName=S15GPIO5 Pin=U1-E10
Added Pin To Net: NetName=S15TXD Pin=U1-E11
Added Pin To Net: NetName=S15SCL Pin=U1-E12
Added Pin To Net: NetName=S16GPIO3 Pin=U1-E13
Added Pin To Net: NetName=S16SCL Pin=U1-E14
Added Pin To Net: NetName=S4MISO Pin=U1-E20
Added Pin To Net: NetName=S4GPIO4 Pin=U1-E22
Added Pin To Net: NetName=S10TXD Pin=U1-F1
Added Pin To Net: NetName=S10MISO Pin=U1-F2
Added Pin To Net: NetName=S10RXD Pin=U1-F3
Added Pin To Net: NetName=S10SIG Pin=U1-F4
Added Pin To Net: NetName=GND Pin=U1-F6
Added Pin To Net: NetName=S13GPIO6 Pin=U1-F7
Added Pin To Net: NetName=S13GPIO3 Pin=U1-F8
Added Pin To Net: NetName=GND Pin=U1-F11
Added Pin To Net: NetName=S16GPIO4 Pin=U1-F13
Added Pin To Net: NetName=GND Pin=U1-F17
Added Pin To Net: NetName=S4GPIO1 Pin=U1-F18
Added Pin To Net: NetName=S4GPIO2 Pin=U1-F19
Added Pin To Net: NetName=S4TXD Pin=U1-F20
Added Pin To Net: NetName=S4SCL Pin=U1-F21
Added Pin To Net: NetName=S4RXD Pin=U1-F22
Added Pin To Net: NetName=S10GPIO1 Pin=U1-G1
Added Pin To Net: NetName=GND Pin=U1-G2
Added Pin To Net: NetName=S10GPIO2 Pin=U1-G3
Added Pin To Net: NetName=S10SCL Pin=U1-G4
Added Pin To Net: NetName=S9GPIO4 Pin=U1-G5
Added Pin To Net: NetName=S9GPIO5 Pin=U1-G6
Added Pin To Net: NetName=S5RXD Pin=U1-G17
Added Pin To Net: NetName=S5MOSI Pin=U1-G18
Added Pin To Net: NetName=S4CK Pin=U1-G19
Added Pin To Net: NetName=S4MOSI Pin=U1-G20
Added Pin To Net: NetName=GND Pin=U1-G21
Added Pin To Net: NetName=S3GPIO4 Pin=U1-G22
Added Pin To Net: NetName=S10GPIO5 Pin=U1-H1
Added Pin To Net: NetName=S10GPIO6 Pin=U1-H2
Added Pin To Net: NetName=S10GPIO3 Pin=U1-H3
Added Pin To Net: NetName=S10GPIO4 Pin=U1-H4
Added Pin To Net: NetName=S10CK Pin=U1-H5
Added Pin To Net: NetName=S10MOSI Pin=U1-H6
Added Pin To Net: NetName=S4ERR Pin=U1-H19
Added Pin To Net: NetName=S3GPIO8 Pin=U1-H20
Added Pin To Net: NetName=S4SIG Pin=U1-H21
Added Pin To Net: NetName=S3GPIO5 Pin=U1-H22
Added Pin To Net: NetName=S10GPIO7 Pin=U1-J1
Added Pin To Net: NetName=S10GPIO8 Pin=U1-J3
Added Pin To Net: NetName=GND Pin=U1-J4
Added Pin To Net: NetName=S10ERR Pin=U1-J5
Added Pin To Net: NetName=GND Pin=U1-J9
Added Pin To Net: NetName=GND Pin=U1-J11
Added Pin To Net: NetName=GND Pin=U1-J13
Added Pin To Net: NetName=GND Pin=U1-J14
Added Pin To Net: NetName=S4SDA Pin=U1-J18
Added Pin To Net: NetName=GND Pin=U1-J19
Added Pin To Net: NetName=S3GPIO2 Pin=U1-J20
Added Pin To Net: NetName=S3GPIO3 Pin=U1-J21
Added Pin To Net: NetName=S3SDA Pin=U1-J22
Added Pin To Net: NetName=S11TXD Pin=U1-K1
Added Pin To Net: NetName=S11RXD Pin=U1-K2
Added Pin To Net: NetName=S11MOSI Pin=U1-K3
Added Pin To Net: NetName=S11SIG Pin=U1-K4
Added Pin To Net: NetName=S11SCL Pin=U1-K5
Added Pin To Net: NetName=S10SDA Pin=U1-K6
Added Pin To Net: NetName=S15SIG Pin=U1-K7
Added Pin To Net: NetName=GND Pin=U1-K10
Added Pin To Net: NetName=GND Pin=U1-K12
Added Pin To Net: NetName=S3GPIO7 Pin=U1-K17
Added Pin To Net: NetName=S3GPIO6 Pin=U1-K18
Added Pin To Net: NetName=S3CK Pin=U1-K19
Added Pin To Net: NetName=S3ERR Pin=U1-K20
Added Pin To Net: NetName=S3TXD Pin=U1-K22
Added Pin To Net: NetName=S11SDA Pin=U1-L1
Added Pin To Net: NetName=GND Pin=U1-L2
Added Pin To Net: NetName=S11CK Pin=U1-L3
Added Pin To Net: NetName=S11ERR Pin=U1-L5
Added Pin To Net: NetName=GND Pin=U1-L6
Added Pin To Net: NetName=S14SIG Pin=U1-L8
Added Pin To Net: NetName=GND Pin=U1-L9
Added Pin To Net: NetName=GND Pin=U1-L11
Added Pin To Net: NetName=GND Pin=U1-L13
Added Pin To Net: NetName=GND Pin=U1-L17
Added Pin To Net: NetName=S3GPIO1 Pin=U1-L18
Added Pin To Net: NetName=S3MISO Pin=U1-L19
Added Pin To Net: NetName=S3SIG Pin=U1-L20
Added Pin To Net: NetName=S3SCL Pin=U1-L21
Added Pin To Net: NetName=S2GPIO7 Pin=U1-L22
Added Pin To Net: NetName=S11GPIO1 Pin=U1-M1
Added Pin To Net: NetName=S11MISO Pin=U1-M2
Added Pin To Net: NetName=S11GPIO3 Pin=U1-M3
Added Pin To Net: NetName=S11GPIO2 Pin=U1-M4
Added Pin To Net: NetName=S12RXD Pin=U1-M5
Added Pin To Net: NetName=S16SIG Pin=U1-M8
Added Pin To Net: NetName=GND Pin=U1-M10
Added Pin To Net: NetName=GND Pin=U1-M12
Added Pin To Net: NetName=GND Pin=U1-M14
Added Pin To Net: NetName=S3MOSI Pin=U1-M18
Added Pin To Net: NetName=S3RXD Pin=U1-M20
Added Pin To Net: NetName=GND Pin=U1-M21
Added Pin To Net: NetName=S2GPIO8 Pin=U1-M22
Added Pin To Net: NetName=S11GPIO5 Pin=U1-N1
Added Pin To Net: NetName=S11GPIO4 Pin=U1-N3
Added Pin To Net: NetName=S12SCL Pin=U1-N4
Added Pin To Net: NetName=GND Pin=U1-N11
Added Pin To Net: NetName=GND Pin=U1-N13
Added Pin To Net: NetName=S2GPIO5 Pin=U1-N17
Added Pin To Net: NetName=S2GPIO6 Pin=U1-N18
Added Pin To Net: NetName=S2GPIO3 Pin=U1-N19
Added Pin To Net: NetName=S2GPIO4 Pin=U1-N20
Added Pin To Net: NetName=S2GPIO1 Pin=U1-N21
Added Pin To Net: NetName=S2GPIO2 Pin=U1-N22
Added Pin To Net: NetName=S11GPIO7 Pin=U1-P1
Added Pin To Net: NetName=S11GPIO6 Pin=U1-P2
Added Pin To Net: NetName=S12SIG Pin=U1-P3
Added Pin To Net: NetName=GND Pin=U1-P4
Added Pin To Net: NetName=S11GPIO8 Pin=U1-P5
Added Pin To Net: NetName=GND Pin=U1-P9
Added Pin To Net: NetName=GND Pin=U1-P10
Added Pin To Net: NetName=GND Pin=U1-P14
Added Pin To Net: NetName=S2TXD Pin=U1-P18
Added Pin To Net: NetName=GND Pin=U1-P19
Added Pin To Net: NetName=S2SDA Pin=U1-P20
Added Pin To Net: NetName=S2ERR Pin=U1-P22
Added Pin To Net: NetName=S12CK Pin=U1-R1
Added Pin To Net: NetName=S12MOSI Pin=U1-R2
Added Pin To Net: NetName=S12SDA Pin=U1-R3
Added Pin To Net: NetName=S12ERR Pin=U1-R4
Added Pin To Net: NetName=S12MISO Pin=U1-R5
Added Pin To Net: NetName=S2MISO Pin=U1-R19
Added Pin To Net: NetName=S2RXD Pin=U1-R20
Added Pin To Net: NetName=S2CK Pin=U1-R21
Added Pin To Net: NetName=S2MOSI Pin=U1-R22
Added Pin To Net: NetName=S12GPIO2 Pin=U1-T1
Added Pin To Net: NetName=GND Pin=U1-T2
Added Pin To Net: NetName=S12GPIO1 Pin=U1-T3
Added Pin To Net: NetName=S12TXD Pin=U1-T4
Added Pin To Net: NetName=S12GPIO8 Pin=U1-T5
Added Pin To Net: NetName=GND Pin=U1-T12
Added Pin To Net: NetName=S1ERR Pin=U1-T17
Added Pin To Net: NetName=S1CK Pin=U1-T18
Added Pin To Net: NetName=S2SCL Pin=U1-T19
Added Pin To Net: NetName=S2SIG Pin=U1-T20
Added Pin To Net: NetName=GND Pin=U1-T21
Added Pin To Net: NetName=S1GPIO8 Pin=U1-T22
Added Pin To Net: NetName=S12GPIO4 Pin=U1-U1
Added Pin To Net: NetName=S12GPIO3 Pin=U1-U2
Added Pin To Net: NetName=S13SCL Pin=U1-U3
Added Pin To Net: NetName=S13SIG Pin=U1-U4
Added Pin To Net: NetName=S12GPIO7 Pin=U1-U5
Added Pin To Net: NetName=GND Pin=U1-U6
Added Pin To Net: NetName=S7MOSI Pin=U1-U11
Added Pin To Net: NetName=S7MISO Pin=U1-U12
Added Pin To Net: NetName=S8MOSI Pin=U1-U13
Added Pin To Net: NetName=GND Pin=U1-U17
Added Pin To Net: NetName=S1GPIO6 Pin=U1-U19
Added Pin To Net: NetName=S1GPIO7 Pin=U1-U20
Added Pin To Net: NetName=S1GPIO4 Pin=U1-U21
Added Pin To Net: NetName=S1GPIO5 Pin=U1-U22
Added Pin To Net: NetName=S12GPIO6 Pin=U1-V1
Added Pin To Net: NetName=S12GPIO5 Pin=U1-V3
Added Pin To Net: NetName=S13ERR Pin=U1-V4
Added Pin To Net: NetName=S5ERR Pin=U1-V6
Added Pin To Net: NetName=S6CK Pin=U1-V9
Added Pin To Net: NetName=S6GPIO4 Pin=U1-V10
Added Pin To Net: NetName=S7RXD Pin=U1-V11
Added Pin To Net: NetName=S7GPIO1 Pin=U1-V12
Added Pin To Net: NetName=S8CK Pin=U1-V13
Added Pin To Net: NetName=S8GPIO4 Pin=U1-V14
Added Pin To Net: NetName=S8GPIO3 Pin=U1-V15
Added Pin To Net: NetName=S8GPIO5 Pin=U1-V16
Added Pin To Net: NetName=S9SIG Pin=U1-V17
Added Pin To Net: NetName=S1GPIO1 Pin=U1-V19
Added Pin To Net: NetName=S1MISO Pin=U1-V20
Added Pin To Net: NetName=S1GPIO2 Pin=U1-V22
Added Pin To Net: NetName=S13MOSI Pin=U1-W1
Added Pin To Net: NetName=S13RXD Pin=U1-W2
Added Pin To Net: NetName=S13CK Pin=U1-W3
Added Pin To Net: NetName=S5TXD Pin=U1-W4
Added Pin To Net: NetName=S5CK Pin=U1-W5
Added Pin To Net: NetName=S5GPIO5 Pin=U1-W6
Added Pin To Net: NetName=S6SIG Pin=U1-W7
Added Pin To Net: NetName=S6MISO Pin=U1-W8
Added Pin To Net: NetName=S6MOSI Pin=U1-W9
Added Pin To Net: NetName=GND Pin=U1-W10
Added Pin To Net: NetName=S7ERR Pin=U1-W12
Added Pin To Net: NetName=S7GPIO7 Pin=U1-W13
Added Pin To Net: NetName=GND Pin=U1-W14
Added Pin To Net: NetName=S8RXD Pin=U1-W15
Added Pin To Net: NetName=S8GPIO6 Pin=U1-W16
Added Pin To Net: NetName=S9RXD Pin=U1-W17
Added Pin To Net: NetName=S9SCL Pin=U1-W18
Added Pin To Net: NetName=S1MOSI Pin=U1-W19
Added Pin To Net: NetName=S1RXD Pin=U1-W20
Added Pin To Net: NetName=S1SDA Pin=U1-W21
Added Pin To Net: NetName=S1GPIO3 Pin=U1-W22
Added Pin To Net: NetName=S13TXD Pin=U1-Y1
Added Pin To Net: NetName=S13SDA Pin=U1-Y2
Added Pin To Net: NetName=GND Pin=U1-Y3
Added Pin To Net: NetName=S5SDA Pin=U1-Y4
Added Pin To Net: NetName=S5GPIO4 Pin=U1-Y5
Added Pin To Net: NetName=S5GPIO8 Pin=U1-Y6
Added Pin To Net: NetName=S6SDA Pin=U1-Y7
Added Pin To Net: NetName=S6TXD Pin=U1-Y8
Added Pin To Net: NetName=S6GPIO6 Pin=U1-Y9
Added Pin To Net: NetName=S6GPIO3 Pin=U1-Y10
Added Pin To Net: NetName=S7SCL Pin=U1-Y11
Added Pin To Net: NetName=S7CK Pin=U1-Y12
Added Pin To Net: NetName=S7GPIO2 Pin=U1-Y13
Added Pin To Net: NetName=S7GPIO6 Pin=U1-Y14
Added Pin To Net: NetName=S8SCL Pin=U1-Y15
Added Pin To Net: NetName=S8ERR Pin=U1-Y16
Added Pin To Net: NetName=S8TXD Pin=U1-Y17
Added Pin To Net: NetName=S9MOSI Pin=U1-Y18
Added Pin To Net: NetName=GND Pin=U1-Y20
Added Pin To Net: NetName=S1SIG Pin=U1-Y21
Added Pin To Net: NetName=S1TXD Pin=U1-Y22
