Removed Pin From Net: NetName=GND Pin=C219-2
Removed Pin From Net: NetName=V5SLOT Pin=J1-A1
Removed Pin From Net: NetName=S1SIG Pin=J1-A2
Removed Pin From Net: NetName=S1SCL Pin=J1-A3
Removed Pin From Net: NetName=S1RXD Pin=J1-A4
Removed Pin From Net: NetName=SLOTGND Pin=J1-A5
Removed Pin From Net: NetName=S1GPIO1 Pin=J1-A8
Removed Pin From Net: NetName=S1GPIO3 Pin=J1-A9
Removed Pin From Net: NetName=S1GPIO5 Pin=J1-A10
Removed Pin From Net: NetName=S1GPIO7 Pin=J1-A11
Removed Pin From Net: NetName=SLOTGND Pin=J1-A12
Removed Pin From Net: NetName=SLOTGND Pin=J1-A13
Removed Pin From Net: NetName=SLOTGND Pin=J1-A14
Removed Pin From Net: NetName=SLOTGND Pin=J1-A15
Removed Pin From Net: NetName=SLOTGND Pin=J1-A16
Removed Pin From Net: NetName=SLOTGND Pin=J1-A17
Removed Pin From Net: NetName=SLOTGND Pin=J1-A18
Removed Pin From Net: NetName=GND Pin=J1-B1
Removed Pin From Net: NetName=S1ERR Pin=J1-B2
Removed Pin From Net: NetName=S1SDA Pin=J1-B3
Removed Pin From Net: NetName=S1TXD Pin=J1-B4
Removed Pin From Net: NetName=V3V3SLOT Pin=J1-B5
Removed Pin From Net: NetName=S1MISO Pin=J1-B6
Removed Pin From Net: NetName=GND Pin=J1-B7
Removed Pin From Net: NetName=S1GPIO2 Pin=J1-B8
Removed Pin From Net: NetName=S1GPIO4 Pin=J1-B9
Removed Pin From Net: NetName=S1GPIO6 Pin=J1-B10
Removed Pin From Net: NetName=S1GPIO8 Pin=J1-B11
Removed Pin From Net: NetName=V12NEG Pin=J1-B12
Removed Pin From Net: NetName=V12 Pin=J1-B13
Removed Pin From Net: NetName=V40SG1 Pin=J1-B14
Removed Pin From Net: NetName=V40SG1 Pin=J1-B15
Removed Pin From Net: NetName=V40SG1 Pin=J1-B16
Removed Pin From Net: NetName=V40SG1 Pin=J1-B17
Removed Pin From Net: NetName=V40SG1 Pin=J1-B18
Removed Pin From Net: NetName=V5SLOT Pin=J2-A1
Removed Pin From Net: NetName=S2SIG Pin=J2-A2
Removed Pin From Net: NetName=S2SCL Pin=J2-A3
Removed Pin From Net: NetName=S2RXD Pin=J2-A4
Removed Pin From Net: NetName=SLOTGND Pin=J2-A5
Removed Pin From Net: NetName=S2GPIO1 Pin=J2-A8
Removed Pin From Net: NetName=S2GPIO3 Pin=J2-A9
Removed Pin From Net: NetName=S2GPIO5 Pin=J2-A10
Removed Pin From Net: NetName=S2GPIO7 Pin=J2-A11
Removed Pin From Net: NetName=SLOTGND Pin=J2-A12
Removed Pin From Net: NetName=GND Pin=J2-B1
Removed Pin From Net: NetName=S2ERR Pin=J2-B2
Removed Pin From Net: NetName=S2SDA Pin=J2-B3
Removed Pin From Net: NetName=S2TXD Pin=J2-B4
Removed Pin From Net: NetName=V3V3SLOT Pin=J2-B5
Removed Pin From Net: NetName=S2MISO Pin=J2-B6
Removed Pin From Net: NetName=GND Pin=J2-B7
Removed Pin From Net: NetName=S2GPIO2 Pin=J2-B8
Removed Pin From Net: NetName=S2GPIO4 Pin=J2-B9
Removed Pin From Net: NetName=S2GPIO6 Pin=J2-B10
Removed Pin From Net: NetName=S2GPIO8 Pin=J2-B11
Removed Pin From Net: NetName=V12NEG Pin=J2-B12
Removed Pin From Net: NetName=V12 Pin=J2-B13
Removed Pin From Net: NetName=V40SG1 Pin=J2-B14
Removed Pin From Net: NetName=V40SG1 Pin=J2-B15
Removed Pin From Net: NetName=V40SG1 Pin=J2-B16
Removed Pin From Net: NetName=V40SG1 Pin=J2-B17
Removed Pin From Net: NetName=V40SG1 Pin=J2-B18
Removed Pin From Net: NetName=V5SLOT Pin=J3-A1
Removed Pin From Net: NetName=S3SIG Pin=J3-A2
Removed Pin From Net: NetName=S3SCL Pin=J3-A3
Removed Pin From Net: NetName=S3RXD Pin=J3-A4
Removed Pin From Net: NetName=SLOTGND Pin=J3-A5
Removed Pin From Net: NetName=S3GPIO1 Pin=J3-A8
Removed Pin From Net: NetName=S3GPIO3 Pin=J3-A9
Removed Pin From Net: NetName=S3GPIO5 Pin=J3-A10
Removed Pin From Net: NetName=S3GPIO7 Pin=J3-A11
Removed Pin From Net: NetName=SLOTGND Pin=J3-A12
Removed Pin From Net: NetName=SLOTGND Pin=J3-A13
Removed Pin From Net: NetName=SLOTGND Pin=J3-A14
Removed Pin From Net: NetName=SLOTGND Pin=J3-A15
Removed Pin From Net: NetName=SLOTGND Pin=J3-A16
Removed Pin From Net: NetName=SLOTGND Pin=J3-A17
Removed Pin From Net: NetName=SLOTGND Pin=J3-A18
Removed Pin From Net: NetName=GND Pin=J3-B1
Removed Pin From Net: NetName=S3ERR Pin=J3-B2
Removed Pin From Net: NetName=S3SDA Pin=J3-B3
Removed Pin From Net: NetName=S3TXD Pin=J3-B4
Removed Pin From Net: NetName=V3V3SLOT Pin=J3-B5
Removed Pin From Net: NetName=S3MISO Pin=J3-B6
Removed Pin From Net: NetName=GND Pin=J3-B7
Removed Pin From Net: NetName=S3GPIO2 Pin=J3-B8
Removed Pin From Net: NetName=S3GPIO4 Pin=J3-B9
Removed Pin From Net: NetName=S3GPIO6 Pin=J3-B10
Removed Pin From Net: NetName=S3GPIO8 Pin=J3-B11
Removed Pin From Net: NetName=V12NEG Pin=J3-B12
Removed Pin From Net: NetName=V12 Pin=J3-B13
Removed Pin From Net: NetName=V40SG1 Pin=J3-B14
Removed Pin From Net: NetName=V40SG1 Pin=J3-B15
Removed Pin From Net: NetName=V40SG1 Pin=J3-B16
Removed Pin From Net: NetName=V40SG1 Pin=J3-B17
Removed Pin From Net: NetName=V40SG1 Pin=J3-B18
Removed Pin From Net: NetName=V5SLOT Pin=J4-A1
Removed Pin From Net: NetName=S4SIG Pin=J4-A2
Removed Pin From Net: NetName=S4SCL Pin=J4-A3
Removed Pin From Net: NetName=S4RXD Pin=J4-A4
Removed Pin From Net: NetName=SLOTGND Pin=J4-A5
Removed Pin From Net: NetName=S4GPIO1 Pin=J4-A8
Removed Pin From Net: NetName=S4GPIO3 Pin=J4-A9
Removed Pin From Net: NetName=S4GPIO5 Pin=J4-A10
Removed Pin From Net: NetName=S4GPIO7 Pin=J4-A11
Removed Pin From Net: NetName=SLOTGND Pin=J4-A12
Removed Pin From Net: NetName=SLOTGND Pin=J4-A13
Removed Pin From Net: NetName=SLOTGND Pin=J4-A14
Removed Pin From Net: NetName=SLOTGND Pin=J4-A15
Removed Pin From Net: NetName=SLOTGND Pin=J4-A16
Removed Pin From Net: NetName=SLOTGND Pin=J4-A17
Removed Pin From Net: NetName=SLOTGND Pin=J4-A18
Removed Pin From Net: NetName=GND Pin=J4-B1
Removed Pin From Net: NetName=S4ERR Pin=J4-B2
Removed Pin From Net: NetName=S4SDA Pin=J4-B3
Removed Pin From Net: NetName=S4TXD Pin=J4-B4
Removed Pin From Net: NetName=V3V3SLOT Pin=J4-B5
Removed Pin From Net: NetName=S4MISO Pin=J4-B6
Removed Pin From Net: NetName=GND Pin=J4-B7
Removed Pin From Net: NetName=S4GPIO2 Pin=J4-B8
Removed Pin From Net: NetName=S4GPIO4 Pin=J4-B9
Removed Pin From Net: NetName=S4GPIO6 Pin=J4-B10
Removed Pin From Net: NetName=S4GPIO8 Pin=J4-B11
Removed Pin From Net: NetName=V12NEG Pin=J4-B12
Removed Pin From Net: NetName=V12 Pin=J4-B13
Removed Pin From Net: NetName=V40SG1 Pin=J4-B14
Removed Pin From Net: NetName=V40SG1 Pin=J4-B15
Removed Pin From Net: NetName=V40SG1 Pin=J4-B16
Removed Pin From Net: NetName=V40SG1 Pin=J4-B17
Removed Pin From Net: NetName=V40SG1 Pin=J4-B18
Removed Pin From Net: NetName=V5SLOT Pin=J5-A1
Removed Pin From Net: NetName=S5SIG Pin=J5-A2
Removed Pin From Net: NetName=S5SCL Pin=J5-A3
Removed Pin From Net: NetName=S5RXD Pin=J5-A4
Removed Pin From Net: NetName=SLOTGND Pin=J5-A5
Removed Pin From Net: NetName=S5GPIO1 Pin=J5-A8
Removed Pin From Net: NetName=S5GPIO3 Pin=J5-A9
Removed Pin From Net: NetName=S5GPIO5 Pin=J5-A10
Removed Pin From Net: NetName=S5GPIO7 Pin=J5-A11
Removed Pin From Net: NetName=SLOTGND Pin=J5-A12
Removed Pin From Net: NetName=SLOTGND Pin=J5-A13
Removed Pin From Net: NetName=SLOTGND Pin=J5-A14
Removed Pin From Net: NetName=SLOTGND Pin=J5-A15
Removed Pin From Net: NetName=SLOTGND Pin=J5-A16
Removed Pin From Net: NetName=SLOTGND Pin=J5-A17
Removed Pin From Net: NetName=SLOTGND Pin=J5-A18
Removed Pin From Net: NetName=GND Pin=J5-B1
Removed Pin From Net: NetName=S5ERR Pin=J5-B2
Removed Pin From Net: NetName=S5SDA Pin=J5-B3
Removed Pin From Net: NetName=S5TXD Pin=J5-B4
Removed Pin From Net: NetName=V3V3SLOT Pin=J5-B5
Removed Pin From Net: NetName=S5MISO Pin=J5-B6
Removed Pin From Net: NetName=GND Pin=J5-B7
Removed Pin From Net: NetName=S5GPIO2 Pin=J5-B8
Removed Pin From Net: NetName=S5GPIO4 Pin=J5-B9
Removed Pin From Net: NetName=S5GPIO6 Pin=J5-B10
Removed Pin From Net: NetName=S5GPIO8 Pin=J5-B11
Removed Pin From Net: NetName=V12NEG Pin=J5-B12
Removed Pin From Net: NetName=V12 Pin=J5-B13
Removed Pin From Net: NetName=V40SG2 Pin=J5-B14
Removed Pin From Net: NetName=V40SG2 Pin=J5-B15
Removed Pin From Net: NetName=V40SG2 Pin=J5-B16
Removed Pin From Net: NetName=V40SG2 Pin=J5-B17
Removed Pin From Net: NetName=V40SG2 Pin=J5-B18
Removed Pin From Net: NetName=V5SLOT Pin=J6-A1
Removed Pin From Net: NetName=S6SIG Pin=J6-A2
Removed Pin From Net: NetName=S6SCL Pin=J6-A3
Removed Pin From Net: NetName=S6RXD Pin=J6-A4
Removed Pin From Net: NetName=SLOTGND Pin=J6-A5
Removed Pin From Net: NetName=S6GPIO1 Pin=J6-A8
Removed Pin From Net: NetName=S6GPIO3 Pin=J6-A9
Removed Pin From Net: NetName=S6GPIO5 Pin=J6-A10
Removed Pin From Net: NetName=S6GPIO7 Pin=J6-A11
Removed Pin From Net: NetName=SLOTGND Pin=J6-A12
Removed Pin From Net: NetName=SLOTGND Pin=J6-A13
Removed Pin From Net: NetName=SLOTGND Pin=J6-A14
Removed Pin From Net: NetName=SLOTGND Pin=J6-A15
Removed Pin From Net: NetName=SLOTGND Pin=J6-A16
Removed Pin From Net: NetName=SLOTGND Pin=J6-A17
Removed Pin From Net: NetName=SLOTGND Pin=J6-A18
Removed Pin From Net: NetName=GND Pin=J6-B1
Removed Pin From Net: NetName=S6ERR Pin=J6-B2
Removed Pin From Net: NetName=S6SDA Pin=J6-B3
Removed Pin From Net: NetName=S6TXD Pin=J6-B4
Removed Pin From Net: NetName=V3V3SLOT Pin=J6-B5
Removed Pin From Net: NetName=S6MISO Pin=J6-B6
Removed Pin From Net: NetName=GND Pin=J6-B7
Removed Pin From Net: NetName=S6GPIO2 Pin=J6-B8
Removed Pin From Net: NetName=S6GPIO4 Pin=J6-B9
Removed Pin From Net: NetName=S6GPIO6 Pin=J6-B10
Removed Pin From Net: NetName=S6GPIO8 Pin=J6-B11
Removed Pin From Net: NetName=V12NEG Pin=J6-B12
Removed Pin From Net: NetName=V12 Pin=J6-B13
Removed Pin From Net: NetName=V40SG2 Pin=J6-B14
Removed Pin From Net: NetName=V40SG2 Pin=J6-B15
Removed Pin From Net: NetName=V40SG2 Pin=J6-B16
Removed Pin From Net: NetName=V40SG2 Pin=J6-B17
Removed Pin From Net: NetName=V40SG2 Pin=J6-B18
Removed Pin From Net: NetName=V5SLOT Pin=J7-A1
Removed Pin From Net: NetName=S7SIG Pin=J7-A2
Removed Pin From Net: NetName=S7SCL Pin=J7-A3
Removed Pin From Net: NetName=S7RXD Pin=J7-A4
Removed Pin From Net: NetName=SLOTGND Pin=J7-A5
Removed Pin From Net: NetName=S7GPIO1 Pin=J7-A8
Removed Pin From Net: NetName=S7GPIO3 Pin=J7-A9
Removed Pin From Net: NetName=S7GPIO5 Pin=J7-A10
Removed Pin From Net: NetName=S7GPIO7 Pin=J7-A11
Removed Pin From Net: NetName=SLOTGND Pin=J7-A12
Removed Pin From Net: NetName=SLOTGND Pin=J7-A13
Removed Pin From Net: NetName=SLOTGND Pin=J7-A14
Removed Pin From Net: NetName=SLOTGND Pin=J7-A15
Removed Pin From Net: NetName=SLOTGND Pin=J7-A16
Removed Pin From Net: NetName=SLOTGND Pin=J7-A17
Removed Pin From Net: NetName=SLOTGND Pin=J7-A18
Removed Pin From Net: NetName=GND Pin=J7-B1
Removed Pin From Net: NetName=S7ERR Pin=J7-B2
Removed Pin From Net: NetName=S7SDA Pin=J7-B3
Removed Pin From Net: NetName=S7TXD Pin=J7-B4
Removed Pin From Net: NetName=V3V3SLOT Pin=J7-B5
Removed Pin From Net: NetName=S7MISO Pin=J7-B6
Removed Pin From Net: NetName=GND Pin=J7-B7
Removed Pin From Net: NetName=S7GPIO2 Pin=J7-B8
Removed Pin From Net: NetName=S7GPIO4 Pin=J7-B9
Removed Pin From Net: NetName=S7GPIO6 Pin=J7-B10
Removed Pin From Net: NetName=S7GPIO8 Pin=J7-B11
Removed Pin From Net: NetName=V12NEG Pin=J7-B12
Removed Pin From Net: NetName=V12 Pin=J7-B13
Removed Pin From Net: NetName=V40SG2 Pin=J7-B14
Removed Pin From Net: NetName=V40SG2 Pin=J7-B15
Removed Pin From Net: NetName=V40SG2 Pin=J7-B16
Removed Pin From Net: NetName=V40SG2 Pin=J7-B17
Removed Pin From Net: NetName=V40SG2 Pin=J7-B18
Removed Pin From Net: NetName=V5SLOT Pin=J8-A1
Removed Pin From Net: NetName=S8SIG Pin=J8-A2
Removed Pin From Net: NetName=S8SCL Pin=J8-A3
Removed Pin From Net: NetName=S8RXD Pin=J8-A4
Removed Pin From Net: NetName=SLOTGND Pin=J8-A5
Removed Pin From Net: NetName=S8GPIO1 Pin=J8-A8
Removed Pin From Net: NetName=S8GPIO3 Pin=J8-A9
Removed Pin From Net: NetName=S8GPIO5 Pin=J8-A10
Removed Pin From Net: NetName=S8GPIO7 Pin=J8-A11
Removed Pin From Net: NetName=SLOTGND Pin=J8-A12
Removed Pin From Net: NetName=SLOTGND Pin=J8-A13
Removed Pin From Net: NetName=SLOTGND Pin=J8-A14
Removed Pin From Net: NetName=SLOTGND Pin=J8-A15
Removed Pin From Net: NetName=SLOTGND Pin=J8-A16
Removed Pin From Net: NetName=SLOTGND Pin=J8-A17
Removed Pin From Net: NetName=SLOTGND Pin=J8-A18
Removed Pin From Net: NetName=GND Pin=J8-B1
Removed Pin From Net: NetName=S8ERR Pin=J8-B2
Removed Pin From Net: NetName=S8SDA Pin=J8-B3
Removed Pin From Net: NetName=S8TXD Pin=J8-B4
Removed Pin From Net: NetName=V3V3SLOT Pin=J8-B5
Removed Pin From Net: NetName=S8MISO Pin=J8-B6
Removed Pin From Net: NetName=GND Pin=J8-B7
Removed Pin From Net: NetName=S8GPIO2 Pin=J8-B8
Removed Pin From Net: NetName=S8GPIO4 Pin=J8-B9
Removed Pin From Net: NetName=S8GPIO6 Pin=J8-B10
Removed Pin From Net: NetName=S8GPIO8 Pin=J8-B11
Removed Pin From Net: NetName=V12NEG Pin=J8-B12
Removed Pin From Net: NetName=V12 Pin=J8-B13
Removed Pin From Net: NetName=V40SG2 Pin=J8-B14
Removed Pin From Net: NetName=V40SG2 Pin=J8-B15
Removed Pin From Net: NetName=V40SG2 Pin=J8-B16
Removed Pin From Net: NetName=V40SG2 Pin=J8-B17
Removed Pin From Net: NetName=V40SG2 Pin=J8-B18
Removed Pin From Net: NetName=V5SLOT Pin=J9-A1
Removed Pin From Net: NetName=S9SIG Pin=J9-A2
Removed Pin From Net: NetName=S9SCL Pin=J9-A3
Removed Pin From Net: NetName=S9RXD Pin=J9-A4
Removed Pin From Net: NetName=SLOTGND Pin=J9-A5
Removed Pin From Net: NetName=S9GPIO1 Pin=J9-A8
Removed Pin From Net: NetName=S9GPIO3 Pin=J9-A9
Removed Pin From Net: NetName=S9GPIO5 Pin=J9-A10
Removed Pin From Net: NetName=S9GPIO7 Pin=J9-A11
Removed Pin From Net: NetName=SLOTGND Pin=J9-A12
Removed Pin From Net: NetName=SLOTGND Pin=J9-A13
Removed Pin From Net: NetName=SLOTGND Pin=J9-A14
Removed Pin From Net: NetName=SLOTGND Pin=J9-A15
Removed Pin From Net: NetName=SLOTGND Pin=J9-A16
Removed Pin From Net: NetName=SLOTGND Pin=J9-A17
Removed Pin From Net: NetName=SLOTGND Pin=J9-A18
Removed Pin From Net: NetName=GND Pin=J9-B1
Removed Pin From Net: NetName=S9ERR Pin=J9-B2
Removed Pin From Net: NetName=S9SDA Pin=J9-B3
Removed Pin From Net: NetName=S9TXD Pin=J9-B4
Removed Pin From Net: NetName=V3V3SLOT Pin=J9-B5
Removed Pin From Net: NetName=S9MISO Pin=J9-B6
Removed Pin From Net: NetName=GND Pin=J9-B7
Removed Pin From Net: NetName=S9GPIO2 Pin=J9-B8
Removed Pin From Net: NetName=S9GPIO4 Pin=J9-B9
Removed Pin From Net: NetName=S9GPIO6 Pin=J9-B10
Removed Pin From Net: NetName=S9GPIO8 Pin=J9-B11
Removed Pin From Net: NetName=V12NEG Pin=J9-B12
Removed Pin From Net: NetName=V12 Pin=J9-B13
Removed Pin From Net: NetName=V40SG3 Pin=J9-B14
Removed Pin From Net: NetName=V40SG3 Pin=J9-B15
Removed Pin From Net: NetName=V40SG3 Pin=J9-B16
Removed Pin From Net: NetName=V40SG3 Pin=J9-B17
Removed Pin From Net: NetName=V40SG3 Pin=J9-B18
Removed Pin From Net: NetName=V5SLOT Pin=J10-A1
Removed Pin From Net: NetName=S10SIG Pin=J10-A2
Removed Pin From Net: NetName=S10SCL Pin=J10-A3
Removed Pin From Net: NetName=S10RXD Pin=J10-A4
Removed Pin From Net: NetName=SLOTGND Pin=J10-A5
Removed Pin From Net: NetName=S10GPIO1 Pin=J10-A8
Removed Pin From Net: NetName=S10GPIO3 Pin=J10-A9
Removed Pin From Net: NetName=S10GPIO5 Pin=J10-A10
Removed Pin From Net: NetName=S10GPIO7 Pin=J10-A11
Removed Pin From Net: NetName=SLOTGND Pin=J10-A12
Removed Pin From Net: NetName=SLOTGND Pin=J10-A13
Removed Pin From Net: NetName=SLOTGND Pin=J10-A14
Removed Pin From Net: NetName=SLOTGND Pin=J10-A15
Removed Pin From Net: NetName=SLOTGND Pin=J10-A16
Removed Pin From Net: NetName=SLOTGND Pin=J10-A17
Removed Pin From Net: NetName=SLOTGND Pin=J10-A18
Removed Pin From Net: NetName=GND Pin=J10-B1
Removed Pin From Net: NetName=S10ERR Pin=J10-B2
Removed Pin From Net: NetName=S10SDA Pin=J10-B3
Removed Pin From Net: NetName=S10TXD Pin=J10-B4
Removed Pin From Net: NetName=V3V3SLOT Pin=J10-B5
Removed Pin From Net: NetName=S10MISO Pin=J10-B6
Removed Pin From Net: NetName=GND Pin=J10-B7
Removed Pin From Net: NetName=S10GPIO2 Pin=J10-B8
Removed Pin From Net: NetName=S10GPIO4 Pin=J10-B9
Removed Pin From Net: NetName=S10GPIO6 Pin=J10-B10
Removed Pin From Net: NetName=S10GPIO8 Pin=J10-B11
Removed Pin From Net: NetName=V12NEG Pin=J10-B12
Removed Pin From Net: NetName=V12 Pin=J10-B13
Removed Pin From Net: NetName=V40SG3 Pin=J10-B14
Removed Pin From Net: NetName=V40SG3 Pin=J10-B15
Removed Pin From Net: NetName=V40SG3 Pin=J10-B16
Removed Pin From Net: NetName=V40SG3 Pin=J10-B17
Removed Pin From Net: NetName=V40SG3 Pin=J10-B18
Removed Pin From Net: NetName=V5SLOT Pin=J11-A1
Removed Pin From Net: NetName=S11SIG Pin=J11-A2
Removed Pin From Net: NetName=S11SCL Pin=J11-A3
Removed Pin From Net: NetName=S11RXD Pin=J11-A4
Removed Pin From Net: NetName=SLOTGND Pin=J11-A5
Removed Pin From Net: NetName=S11GPIO1 Pin=J11-A8
Removed Pin From Net: NetName=S11GPIO3 Pin=J11-A9
Removed Pin From Net: NetName=S11GPIO5 Pin=J11-A10
Removed Pin From Net: NetName=S11GPIO7 Pin=J11-A11
Removed Pin From Net: NetName=SLOTGND Pin=J11-A12
Removed Pin From Net: NetName=SLOTGND Pin=J11-A13
Removed Pin From Net: NetName=SLOTGND Pin=J11-A14
Removed Pin From Net: NetName=SLOTGND Pin=J11-A15
Removed Pin From Net: NetName=SLOTGND Pin=J11-A16
Removed Pin From Net: NetName=SLOTGND Pin=J11-A17
Removed Pin From Net: NetName=SLOTGND Pin=J11-A18
Removed Pin From Net: NetName=GND Pin=J11-B1
Removed Pin From Net: NetName=S11ERR Pin=J11-B2
Removed Pin From Net: NetName=S11SDA Pin=J11-B3
Removed Pin From Net: NetName=S11TXD Pin=J11-B4
Removed Pin From Net: NetName=V3V3SLOT Pin=J11-B5
Removed Pin From Net: NetName=S11MISO Pin=J11-B6
Removed Pin From Net: NetName=GND Pin=J11-B7
Removed Pin From Net: NetName=S11GPIO2 Pin=J11-B8
Removed Pin From Net: NetName=S11GPIO4 Pin=J11-B9
Removed Pin From Net: NetName=S11GPIO6 Pin=J11-B10
Removed Pin From Net: NetName=S11GPIO8 Pin=J11-B11
Removed Pin From Net: NetName=V12NEG Pin=J11-B12
Removed Pin From Net: NetName=V12 Pin=J11-B13
Removed Pin From Net: NetName=V40SG3 Pin=J11-B14
Removed Pin From Net: NetName=V40SG3 Pin=J11-B15
Removed Pin From Net: NetName=V40SG3 Pin=J11-B16
Removed Pin From Net: NetName=V40SG3 Pin=J11-B17
Removed Pin From Net: NetName=V40SG3 Pin=J11-B18
Removed Pin From Net: NetName=V5SLOT Pin=J12-A1
Removed Pin From Net: NetName=S12SIG Pin=J12-A2
Removed Pin From Net: NetName=S12SCL Pin=J12-A3
Removed Pin From Net: NetName=S12RXD Pin=J12-A4
Removed Pin From Net: NetName=SLOTGND Pin=J12-A5
Removed Pin From Net: NetName=S12GPIO1 Pin=J12-A8
Removed Pin From Net: NetName=S12GPIO3 Pin=J12-A9
Removed Pin From Net: NetName=S12GPIO5 Pin=J12-A10
Removed Pin From Net: NetName=S12GPIO7 Pin=J12-A11
Removed Pin From Net: NetName=SLOTGND Pin=J12-A12
Removed Pin From Net: NetName=SLOTGND Pin=J12-A13
Removed Pin From Net: NetName=SLOTGND Pin=J12-A14
Removed Pin From Net: NetName=SLOTGND Pin=J12-A15
Removed Pin From Net: NetName=SLOTGND Pin=J12-A16
Removed Pin From Net: NetName=SLOTGND Pin=J12-A17
Removed Pin From Net: NetName=SLOTGND Pin=J12-A18
Removed Pin From Net: NetName=GND Pin=J12-B1
Removed Pin From Net: NetName=S12ERR Pin=J12-B2
Removed Pin From Net: NetName=S12SDA Pin=J12-B3
Removed Pin From Net: NetName=S12TXD Pin=J12-B4
Removed Pin From Net: NetName=V3V3SLOT Pin=J12-B5
Removed Pin From Net: NetName=S12MISO Pin=J12-B6
Removed Pin From Net: NetName=GND Pin=J12-B7
Removed Pin From Net: NetName=S12GPIO2 Pin=J12-B8
Removed Pin From Net: NetName=S12GPIO4 Pin=J12-B9
Removed Pin From Net: NetName=S12GPIO6 Pin=J12-B10
Removed Pin From Net: NetName=S12GPIO8 Pin=J12-B11
Removed Pin From Net: NetName=V12NEG Pin=J12-B12
Removed Pin From Net: NetName=V12 Pin=J12-B13
Removed Pin From Net: NetName=V40SG3 Pin=J12-B14
Removed Pin From Net: NetName=V40SG3 Pin=J12-B15
Removed Pin From Net: NetName=V40SG3 Pin=J12-B16
Removed Pin From Net: NetName=V40SG3 Pin=J12-B17
Removed Pin From Net: NetName=V40SG3 Pin=J12-B18
Removed Pin From Net: NetName=V5SLOT Pin=J13-A1
Removed Pin From Net: NetName=S13SIG Pin=J13-A2
Removed Pin From Net: NetName=S13SCL Pin=J13-A3
Removed Pin From Net: NetName=S13RXD Pin=J13-A4
Removed Pin From Net: NetName=SLOTGND Pin=J13-A5
Removed Pin From Net: NetName=S13GPIO1 Pin=J13-A8
Removed Pin From Net: NetName=S13GPIO3 Pin=J13-A9
Removed Pin From Net: NetName=S13GPIO5 Pin=J13-A10
Removed Pin From Net: NetName=S13GPIO7 Pin=J13-A11
Removed Pin From Net: NetName=SLOTGND Pin=J13-A12
Removed Pin From Net: NetName=SLOTGND Pin=J13-A13
Removed Pin From Net: NetName=SLOTGND Pin=J13-A14
Removed Pin From Net: NetName=SLOTGND Pin=J13-A15
Removed Pin From Net: NetName=SLOTGND Pin=J13-A16
Removed Pin From Net: NetName=SLOTGND Pin=J13-A17
Removed Pin From Net: NetName=SLOTGND Pin=J13-A18
Removed Pin From Net: NetName=GND Pin=J13-B1
Removed Pin From Net: NetName=S13ERR Pin=J13-B2
Removed Pin From Net: NetName=S13SDA Pin=J13-B3
Removed Pin From Net: NetName=S13TXD Pin=J13-B4
Removed Pin From Net: NetName=V3V3SLOT Pin=J13-B5
Removed Pin From Net: NetName=S13MISO Pin=J13-B6
Removed Pin From Net: NetName=GND Pin=J13-B7
Removed Pin From Net: NetName=S13GPIO2 Pin=J13-B8
Removed Pin From Net: NetName=S13GPIO4 Pin=J13-B9
Removed Pin From Net: NetName=S13GPIO6 Pin=J13-B10
Removed Pin From Net: NetName=S13GPIO8 Pin=J13-B11
Removed Pin From Net: NetName=V12NEG Pin=J13-B12
Removed Pin From Net: NetName=V12 Pin=J13-B13
Removed Pin From Net: NetName=V40SG4 Pin=J13-B14
Removed Pin From Net: NetName=V40SG4 Pin=J13-B15
Removed Pin From Net: NetName=V40SG4 Pin=J13-B16
Removed Pin From Net: NetName=V40SG4 Pin=J13-B17
Removed Pin From Net: NetName=V40SG4 Pin=J13-B18
Removed Pin From Net: NetName=V5SLOT Pin=J14-A1
Removed Pin From Net: NetName=S14SIG Pin=J14-A2
Removed Pin From Net: NetName=S14SCL Pin=J14-A3
Removed Pin From Net: NetName=S14RXD Pin=J14-A4
Removed Pin From Net: NetName=SLOTGND Pin=J14-A5
Removed Pin From Net: NetName=S14GPIO1 Pin=J14-A8
Removed Pin From Net: NetName=S14GPIO3 Pin=J14-A9
Removed Pin From Net: NetName=S14GPIO5 Pin=J14-A10
Removed Pin From Net: NetName=S14GPIO7 Pin=J14-A11
Removed Pin From Net: NetName=SLOTGND Pin=J14-A12
Removed Pin From Net: NetName=SLOTGND Pin=J14-A13
Removed Pin From Net: NetName=SLOTGND Pin=J14-A14
Removed Pin From Net: NetName=SLOTGND Pin=J14-A15
Removed Pin From Net: NetName=SLOTGND Pin=J14-A16
Removed Pin From Net: NetName=SLOTGND Pin=J14-A17
Removed Pin From Net: NetName=SLOTGND Pin=J14-A18
Removed Pin From Net: NetName=GND Pin=J14-B1
Removed Pin From Net: NetName=S14ERR Pin=J14-B2
Removed Pin From Net: NetName=S14SDA Pin=J14-B3
Removed Pin From Net: NetName=S14TXD Pin=J14-B4
Removed Pin From Net: NetName=V3V3SLOT Pin=J14-B5
Removed Pin From Net: NetName=S14MISO Pin=J14-B6
Removed Pin From Net: NetName=GND Pin=J14-B7
Removed Pin From Net: NetName=S14GPIO2 Pin=J14-B8
Removed Pin From Net: NetName=S14GPIO4 Pin=J14-B9
Removed Pin From Net: NetName=S14GPIO6 Pin=J14-B10
Removed Pin From Net: NetName=S14GPIO8 Pin=J14-B11
Removed Pin From Net: NetName=V12NEG Pin=J14-B12
Removed Pin From Net: NetName=V12 Pin=J14-B13
Removed Pin From Net: NetName=V40SG4 Pin=J14-B14
Removed Pin From Net: NetName=V40SG4 Pin=J14-B15
Removed Pin From Net: NetName=V40SG4 Pin=J14-B16
Removed Pin From Net: NetName=V40SG4 Pin=J14-B17
Removed Pin From Net: NetName=V40SG4 Pin=J14-B18
Removed Member From Class: ClassName=Sheet3_CPU Member=C219
Change Component DesignItemId : Designator=J1 Old DesignItemId=PCIE-036-02-F-D-EMS3 New DesignItemId=A08-0816
Change Component DesignItemId : Designator=J7 Old DesignItemId=PCIE-036-02-F-D-EMS3 New DesignItemId=B4B-PH-K-S(LF)(SN)
Change Component DesignItemId : Designator=J8 Old DesignItemId=PCIE-036-02-F-D-EMS3 New DesignItemId=B4B-PH-K-S(LF)(SN)
Change Component DesignItemId : Designator=J9 Old DesignItemId=PCIE-036-02-F-D-EMS3 New DesignItemId=B4B-PH-K-S(LF)(SN)
Change Component DesignItemId : Designator=J10 Old DesignItemId=PCIE-036-02-F-D-EMS3 New DesignItemId=B4B-PH-K-S(LF)(SN)
Change Component DesignItemId : Designator=J11 Old DesignItemId=PCIE-036-02-F-D-EMS3 New DesignItemId=B4B-PH-K-S(LF)(SN)
Change Component DesignItemId : Designator=J12 Old DesignItemId=PCIE-036-02-F-D-EMS3 New DesignItemId=B4B-PH-K-S(LF)(SN)
Change Component DesignItemId : Designator=J13 Old DesignItemId=PCIE-036-02-F-D-EMS3 New DesignItemId=B4B-PH-K-S(LF)(SN)
Change Component DesignItemId : Designator=J14 Old DesignItemId=PCIE-036-02-F-D-EMS3 New DesignItemId=B4B-PH-K-S(LF)(SN)
Change Component DesignItemId : Designator=J2 Old DesignItemId=PCIE-036-02-F-D-EMS3 New DesignItemId=Header 5X2
Change Component DesignItemId : Designator=J5 Old DesignItemId=PCIE-036-02-F-D-EMS3 New DesignItemId=Header 5X2
Change Component DesignItemId : Designator=J3 Old DesignItemId=PCIE-036-02-F-D-EMS3 New DesignItemId=NPPC042KFMS-RC
Change Component DesignItemId : Designator=J4 Old DesignItemId=PCIE-036-02-F-D-EMS3 New DesignItemId=NPPC042KFMS-RC
Change Component DesignItemId : Designator=J6 Old DesignItemId=PCIE-036-02-F-D-EMS3 New DesignItemId=Wiznet Module (Qty 2 6 Pin .1 Header)
Change Component Footprint: Designator=J2 Old Footprint=PCIE-036-02-F-D-EMS3 New Footprint=HDR2X5
Change Component Footprint: Designator=J5 Old Footprint=PCIE-036-02-F-D-EMS3 New Footprint=HDR2X5
Change Component Footprint: Designator=J3 Old Footprint=PCIE-036-02-F-D-EMS3 New Footprint=SOP254P740X760-8N
Change Component Footprint: Designator=J4 Old Footprint=PCIE-036-02-F-D-EMS3 New Footprint=SOP254P740X760-8N
Change Component Footprint: Designator=J6 Old Footprint=PCIE-036-02-F-D-EMS3 New Footprint=WIZ820io
Change Component Comment : Designator=J3 Old Comment=PCI Express Connector - Saddle New Comment=8PinFemale
Change Component Comment : Designator=J4 Old Comment=PCI Express Connector - Saddle New Comment=8PinFemale
Change Component Comment : Designator=J7 Old Comment=PCI Express Connector - Saddle New Comment=B4B-PH-K-S(LF)(SN)
Change Component Comment : Designator=J8 Old Comment=PCI Express Connector - Saddle New Comment=B4B-PH-K-S(LF)(SN)
Change Component Comment : Designator=J9 Old Comment=PCI Express Connector - Saddle New Comment=B4B-PH-K-S(LF)(SN)
Change Component Comment : Designator=J10 Old Comment=PCI Express Connector - Saddle New Comment=B4B-PH-K-S(LF)(SN)
Change Component Comment : Designator=J11 Old Comment=PCI Express Connector - Saddle New Comment=B4B-PH-K-S(LF)(SN)
Change Component Comment : Designator=J12 Old Comment=PCI Express Connector - Saddle New Comment=B4B-PH-K-S(LF)(SN)
Change Component Comment : Designator=J13 Old Comment=PCI Express Connector - Saddle New Comment=B4B-PH-K-S(LF)(SN)
Change Component Comment : Designator=J14 Old Comment=PCI Express Connector - Saddle New Comment=B4B-PH-K-S(LF)(SN)
Change Component Comment : Designator=J2 Old Comment=PCI Express Connector - Saddle New Comment=Header 5X2
Change Component Comment : Designator=J5 Old Comment=PCI Express Connector - Saddle New Comment=Header 5X2
Change Component Comment : Designator=J1 Old Comment=PCI Express Connector - Saddle New Comment=SD/MMC Card socket
Change Component Comment : Designator=J6 Old Comment=PCI Express Connector - Saddle New Comment=Wiznet Module (Qty 2 6 Pin .1 Header)
Change Component Designator: OldDesignator=J15 NewDesignator=J29
Change Component Designator: OldDesignator=J16 NewDesignator=J30
Change Component Description : Designator=J7 Old Description=Samtec PCIE-036-02-F-D-EMS3 New Description=
Change Component Description : Designator=J8 Old Description=Samtec PCIE-036-02-F-D-EMS3 New Description=
Change Component Description : Designator=J9 Old Description=Samtec PCIE-036-02-F-D-EMS3 New Description=
Change Component Description : Designator=J10 Old Description=Samtec PCIE-036-02-F-D-EMS3 New Description=
Change Component Description : Designator=J11 Old Description=Samtec PCIE-036-02-F-D-EMS3 New Description=
Change Component Description : Designator=J12 Old Description=Samtec PCIE-036-02-F-D-EMS3 New Description=
Change Component Description : Designator=J13 Old Description=Samtec PCIE-036-02-F-D-EMS3 New Description=
Change Component Description : Designator=J14 Old Description=Samtec PCIE-036-02-F-D-EMS3 New Description=
Change Component Description : Designator=J1 Old Description=Samtec PCIE-036-02-F-D-EMS3 New Description=SD/MMC socket, 2.7mm, push-push, SMD
Change Component Library : Designator=J1 Old Library=fastcar.SchLib New Library=AltiumDbLib.DbLib
Added Component: Designator=*1(SOTFL50P160X60-5N)
Added Component: Designator=J15(PCIE-036-02-F-D-EMS3)
Added Component: Designator=J16(PCIE-036-02-F-D-EMS3)
Added Component: Designator=J17(PCIE-036-02-F-D-EMS3)
Added Component: Designator=J18(PCIE-036-02-F-D-EMS3)
Added Component: Designator=J19(PCIE-036-02-F-D-EMS3)
Added Component: Designator=J20(PCIE-036-02-F-D-EMS3)
Added Component: Designator=J21(PCIE-036-02-F-D-EMS3)
Added Component: Designator=J22(PCIE-036-02-F-D-EMS3)
Added Component: Designator=J23(PCIE-036-02-F-D-EMS3)
Added Component: Designator=J24(PCIE-036-02-F-D-EMS3)
Added Component: Designator=J25(PCIE-036-02-F-D-EMS3)
Added Component: Designator=J26(PCIE-036-02-F-D-EMS3)
Added Component: Designator=J27(PCIE-036-02-F-D-EMS3)
Added Component: Designator=J28(PCIE-036-02-F-D-EMS3)
Added Component: Designator=J31(PCIE-036-02-F-D-EMS3)
Added Component: Designator=J32(PCIE-036-02-F-D-EMS3)
Added Component: Designator=O1(SON254P340X265-4N)
Added Component: Designator=O2(SON254P340X265-4N)
Added Component: Designator=P1(M3Screw)
Added Component: Designator=P2(M3Screw)
Added Component: Designator=P3(M3Screw)
Added Component: Designator=P4(M3Screw)
Added Component: Designator=P5(M3Screw)
Added Component: Designator=P6(M3Screw)
Added Component: Designator=P7(M3Screw)
Added Component: Designator=P8(M3Screw)
Added Component: Designator=P9(M3Screw)
Added Component: Designator=P10(M3Screw)
Added Component: Designator=P11(M3Screw)
Added Component: Designator=P12(usb_a_sh)
Added Component: Designator=R1(AP2-00011)
Added Component: Designator=R5(AP2-00000)
Added Component: Designator=R6(AP1-00001)
Added Component: Designator=R7(AP1-00001)
Added Component: Designator=R8(AP1-00001)
Added Component: Designator=R9(AP1-00001)
Added Component: Designator=R10(AP1-00001)
Added Component: Designator=R11(AP1-00001)
Added Component: Designator=R12(AP1-00001)
Added Component: Designator=R13(AP1-00001)
Added Component: Designator=R14(AP1-00001)
Added Component: Designator=R15(AP1-00001)
Added Component: Designator=R16(AP1-00001)
Added Component: Designator=R17(AP1-00001)
Added Component: Designator=R18(AP1-00001)
Added Component: Designator=R19(AP1-00001)
Added Component: Designator=R20(AP1-00001)
Added Component: Designator=R21(AP1-00001)
Added Component: Designator=R22(AP1-00001)
Added Component: Designator=R23(AP1-00001)
Added Component: Designator=R24(AP1-00001)
Added Component: Designator=R25(AP1-00001)
Added Component: Designator=R27(AP1-00001)
Added Component: Designator=R28(AP1-00001)
Added Component: Designator=R29(AP1-00001)
Added Component: Designator=R31(AP1-00001)
Added Component: Designator=R32(AP1-00001)
Added Component: Designator=R33(AP1-00001)
Added Component: Designator=R34(AP1-00001)
Added Component: Designator=R35(AP1-00001)
Added Component: Designator=R36(AP1-00001)
Added Component: Designator=R37(AP1-00001)
Added Component: Designator=R38(AP1-00001)
Added Component: Designator=R39(AP1-00001)
Added Component: Designator=R40(AP1-00001)
Added Component: Designator=R41(AP1-00001)
Added Component: Designator=R42(AP1-00001)
Added Component: Designator=R43(AP1-00001)
Added Component: Designator=R44(AP1-00001)
Added Component: Designator=R45(AP1-00001)
Added Component: Designator=R46(AP1-00001)
Added Component: Designator=R47(AP1-00001)
Added Component: Designator=R48(AP1-00001)
Added Component: Designator=R49(AP1-00001)
Added Component: Designator=R50(AP1-00001)
Added Component: Designator=R51(AP1-00001)
Added Component: Designator=R52(AP1-00001)
Added Component: Designator=R53(AP1-00001)
Added Component: Designator=R54(AP1-00001)
Added Component: Designator=R55(AP1-00001)
Added Component: Designator=R56(AP1-00001)
Added Component: Designator=U1(PQFN50P500X500X100_HS-33N)
Added Component: Designator=U2(USB_A_SH)
Added Component: Designator=U3(S-PVQFN-N16)
Added Component: Designator=U4(SOTFL50P160X60-5N)
Added Component: Designator=U5(SOTFL50P160X60-5N)
Added Component: Designator=U6(SOTFL50P160X60-5N)
Added Component: Designator=U7(S-PVQFN-N16)
Added Component: Designator=U9(SOTFL50P160X60-5N)
Added Component: Designator=U10(S-PVQFN-N16)
Added Component: Designator=U11(S-PVQFN-N16)
Added Component: Designator=U12(SOTFL50P160X60-5N)
Added Component: Designator=U13(S-PVQFN-N16)
Added Component: Designator=U15(S-PVQFN-N16)
Added Component: Designator=U16(SOTFL50P160X60-5N)
Added Component: Designator=U17(TSQFP50P1300X1300X120-64N)
Added Component: Designator=U18(SOTFL50P160X60-5N)
Added Component: Designator=U19(SOTFL50P160X60-5N)
Added Component: Designator=U20(SOTFL50P160X60-5N)
Added Component: Designator=U21(SOTFL50P160X60-5N)
Added Component: Designator=U22(SOTFL50P160X60-5N)
Added Component: Designator=U23(SOTFL50P160X60-5N)
Added Component: Designator=U24(SOTFL50P160X60-5N)
Added Component: Designator=U25(SOTFL50P160X60-5N)
Added Component: Designator=U26(SOTFL50P160X60-5N)
Added Component: Designator=U27(SOTFL50P160X60-5N)
Added Component: Designator=U28(SOTFL50P160X60-5N)
Added Component: Designator=U29(SOTFL50P160X60-5N)
Added Component: Designator=U30(SOIC127P1030X265-24N)
Added Component: Designator=U31(SOTFL50P160X60-5N)
Added Component: Designator=U32(SOTFL50P160X60-5N)
Added Component: Designator=U33(SOTFL50P160X60-5N)
Added Component: Designator=U34(SOTFL50P160X60-5N)
Added Component: Designator=U35(SOIC127P1030X265-24N)
Added Component: Designator=U36(SOTFL50P160X60-5N)
Added Component: Designator=U37(SOTFL50P160X60-5N)
Added Component: Designator=U38(SOTFL50P160X60-5N)
Added Component: Designator=U39(SOTFL50P160X60-5N)
Added Component: Designator=U40(SOTFL50P160X60-5N)
Added Component: Designator=U41(SOTFL50P160X60-5N)
Added Component: Designator=U42(SOTFL50P160X60-5N)
Added Component: Designator=U43(SOTFL50P160X60-5N)
Added Component: Designator=U44(SOTFL50P160X60-5N)
Added Component: Designator=U45(SOTFL50P160X60-5N)
Added Component: Designator=U46(SOTFL50P160X60-5N)
Added Component: Designator=U47(SOTFL50P160X60-5N)
Added Component: Designator=U48(SOTFL50P160X60-5N)
Added Component: Designator=U49(SOTFL50P160X60-5N)
Added Component: Designator=U50(SOTFL50P160X60-5N)
Added Component: Designator=U51(SOTFL50P160X60-5N)
Added Component: Designator=U52(SOTFL50P160X60-5N)
Added Component: Designator=U53(PQFN50P400X400X90_HS-25N)
Added Component: Designator=U54(PQFN50P400X400X90_HS-25N)
Added Component: Designator=U55(PQFN50P400X400X90_HS-25N)
Added Component: Designator=U56(PQFN50P400X400X90_HS-25N)
Added Component: Designator=U57(SOTFL50P160X60-5N)
Added Component: Designator=U58(SOTFL50P160X60-5N)
Added Component: Designator=U59(SOTFL50P160X60-5N)
Added Component: Designator=U60(SOTFL50P160X60-5N)
Added Component: Designator=U61(PQFN50P400X400X90_HS-25N)
Added Component: Designator=U62(PQFN50P400X400X90_HS-25N)
Added Component: Designator=U63(PQFN50P400X400X90_HS-25N)
Added Component: Designator=U64(SOTFL50P160X60-5N)
Added Component: Designator=U65(SOTFL50P160X60-5N)
Added Component: Designator=U66(SOTFL50P160X60-5N)
Added Component: Designator=U67(PQFN50P400X400X90_HS-25N)
Added Component: Designator=U68(SOTFL50P160X60-5N)
Added Pin To Net: NetName=GND Pin=*1-3
Added Pin To Net: NetName=GND Pin=J2-9
Added Pin To Net: NetName=GND Pin=J3-2
Added Pin To Net: NetName=GND Pin=J4-2
Added Pin To Net: NetName=GND Pin=J5-9
Added Pin To Net: NetName=GND Pin=J6-1
Added Pin To Net: NetName=GND Pin=J6-2
Added Pin To Net: NetName=V5SLOT Pin=J1-A1
Added Pin To Net: NetName=S1SIG Pin=J1-A2
Added Pin To Net: NetName=S1SCL Pin=J1-A3
Added Pin To Net: NetName=S1RXD Pin=J1-A4
Added Pin To Net: NetName=SLOTGND Pin=J1-A5
Added Pin To Net: NetName=S1GPIO1 Pin=J1-A8
Added Pin To Net: NetName=S1GPIO3 Pin=J1-A9
Added Pin To Net: NetName=S1GPIO5 Pin=J1-A10
Added Pin To Net: NetName=S1GPIO7 Pin=J1-A11
Added Pin To Net: NetName=SLOTGND Pin=J1-A12
Added Pin To Net: NetName=SLOTGND Pin=J1-A13
Added Pin To Net: NetName=SLOTGND Pin=J1-A14
Added Pin To Net: NetName=SLOTGND Pin=J1-A15
Added Pin To Net: NetName=SLOTGND Pin=J1-A16
Added Pin To Net: NetName=SLOTGND Pin=J1-A17
Added Pin To Net: NetName=SLOTGND Pin=J1-A18
Added Pin To Net: NetName=GND Pin=J1-B1
Added Pin To Net: NetName=S1ERR Pin=J1-B2
Added Pin To Net: NetName=S1SDA Pin=J1-B3
Added Pin To Net: NetName=S1TXD Pin=J1-B4
Added Pin To Net: NetName=V3V3SLOT Pin=J1-B5
Added Pin To Net: NetName=S1MISO Pin=J1-B6
Added Pin To Net: NetName=GND Pin=J1-B7
Added Pin To Net: NetName=S1GPIO2 Pin=J1-B8
Added Pin To Net: NetName=S1GPIO4 Pin=J1-B9
Added Pin To Net: NetName=S1GPIO6 Pin=J1-B10
Added Pin To Net: NetName=S1GPIO8 Pin=J1-B11
Added Pin To Net: NetName=V12NEG Pin=J1-B12
Added Pin To Net: NetName=V12 Pin=J1-B13
Added Pin To Net: NetName=V40SG1 Pin=J1-B14
Added Pin To Net: NetName=V40SG1 Pin=J1-B15
Added Pin To Net: NetName=V40SG1 Pin=J1-B16
Added Pin To Net: NetName=V40SG1 Pin=J1-B17
Added Pin To Net: NetName=V40SG1 Pin=J1-B18
Added Pin To Net: NetName=V5SLOT Pin=J7-A1
Added Pin To Net: NetName=S7SIG Pin=J7-A2
Added Pin To Net: NetName=S7SCL Pin=J7-A3
Added Pin To Net: NetName=S7RXD Pin=J7-A4
Added Pin To Net: NetName=SLOTGND Pin=J7-A5
Added Pin To Net: NetName=S7GPIO1 Pin=J7-A8
Added Pin To Net: NetName=S7GPIO3 Pin=J7-A9
Added Pin To Net: NetName=S7GPIO5 Pin=J7-A10
Added Pin To Net: NetName=S7GPIO7 Pin=J7-A11
Added Pin To Net: NetName=SLOTGND Pin=J7-A12
Added Pin To Net: NetName=SLOTGND Pin=J7-A13
Added Pin To Net: NetName=SLOTGND Pin=J7-A14
Added Pin To Net: NetName=SLOTGND Pin=J7-A15
Added Pin To Net: NetName=SLOTGND Pin=J7-A16
Added Pin To Net: NetName=SLOTGND Pin=J7-A17
Added Pin To Net: NetName=SLOTGND Pin=J7-A18
Added Pin To Net: NetName=GND Pin=J7-B1
Added Pin To Net: NetName=S7ERR Pin=J7-B2
Added Pin To Net: NetName=S7SDA Pin=J7-B3
Added Pin To Net: NetName=S7TXD Pin=J7-B4
Added Pin To Net: NetName=V3V3SLOT Pin=J7-B5
Added Pin To Net: NetName=S7MISO Pin=J7-B6
Added Pin To Net: NetName=GND Pin=J7-B7
Added Pin To Net: NetName=S7GPIO2 Pin=J7-B8
Added Pin To Net: NetName=S7GPIO4 Pin=J7-B9
Added Pin To Net: NetName=S7GPIO6 Pin=J7-B10
Added Pin To Net: NetName=S7GPIO8 Pin=J7-B11
Added Pin To Net: NetName=V12NEG Pin=J7-B12
Added Pin To Net: NetName=V12 Pin=J7-B13
Added Pin To Net: NetName=V40SG2 Pin=J7-B14
Added Pin To Net: NetName=V40SG2 Pin=J7-B15
Added Pin To Net: NetName=V40SG2 Pin=J7-B16
Added Pin To Net: NetName=V40SG2 Pin=J7-B17
Added Pin To Net: NetName=V40SG2 Pin=J7-B18
Added Pin To Net: NetName=V5SLOT Pin=J8-A1
Added Pin To Net: NetName=S8SIG Pin=J8-A2
Added Pin To Net: NetName=S8SCL Pin=J8-A3
Added Pin To Net: NetName=S8RXD Pin=J8-A4
Added Pin To Net: NetName=SLOTGND Pin=J8-A5
Added Pin To Net: NetName=S8GPIO1 Pin=J8-A8
Added Pin To Net: NetName=S8GPIO3 Pin=J8-A9
Added Pin To Net: NetName=S8GPIO5 Pin=J8-A10
Added Pin To Net: NetName=S8GPIO7 Pin=J8-A11
Added Pin To Net: NetName=SLOTGND Pin=J8-A12
Added Pin To Net: NetName=SLOTGND Pin=J8-A13
Added Pin To Net: NetName=SLOTGND Pin=J8-A14
Added Pin To Net: NetName=SLOTGND Pin=J8-A15
Added Pin To Net: NetName=SLOTGND Pin=J8-A16
Added Pin To Net: NetName=SLOTGND Pin=J8-A17
Added Pin To Net: NetName=SLOTGND Pin=J8-A18
Added Pin To Net: NetName=GND Pin=J8-B1
Added Pin To Net: NetName=S8ERR Pin=J8-B2
Added Pin To Net: NetName=S8SDA Pin=J8-B3
Added Pin To Net: NetName=S8TXD Pin=J8-B4
Added Pin To Net: NetName=V3V3SLOT Pin=J8-B5
Added Pin To Net: NetName=S8MISO Pin=J8-B6
Added Pin To Net: NetName=GND Pin=J8-B7
Added Pin To Net: NetName=S8GPIO2 Pin=J8-B8
Added Pin To Net: NetName=S8GPIO4 Pin=J8-B9
Added Pin To Net: NetName=S8GPIO6 Pin=J8-B10
Added Pin To Net: NetName=S8GPIO8 Pin=J8-B11
Added Pin To Net: NetName=V12NEG Pin=J8-B12
Added Pin To Net: NetName=V12 Pin=J8-B13
Added Pin To Net: NetName=V40SG2 Pin=J8-B14
Added Pin To Net: NetName=V40SG2 Pin=J8-B15
Added Pin To Net: NetName=V40SG2 Pin=J8-B16
Added Pin To Net: NetName=V40SG2 Pin=J8-B17
Added Pin To Net: NetName=V40SG2 Pin=J8-B18
Added Pin To Net: NetName=V5SLOT Pin=J9-A1
Added Pin To Net: NetName=S9SIG Pin=J9-A2
Added Pin To Net: NetName=S9SCL Pin=J9-A3
Added Pin To Net: NetName=S9RXD Pin=J9-A4
Added Pin To Net: NetName=SLOTGND Pin=J9-A5
Added Pin To Net: NetName=S9GPIO1 Pin=J9-A8
Added Pin To Net: NetName=S9GPIO3 Pin=J9-A9
Added Pin To Net: NetName=S9GPIO5 Pin=J9-A10
Added Pin To Net: NetName=S9GPIO7 Pin=J9-A11
Added Pin To Net: NetName=SLOTGND Pin=J9-A12
Added Pin To Net: NetName=SLOTGND Pin=J9-A13
Added Pin To Net: NetName=SLOTGND Pin=J9-A14
Added Pin To Net: NetName=SLOTGND Pin=J9-A15
Added Pin To Net: NetName=SLOTGND Pin=J9-A16
Added Pin To Net: NetName=SLOTGND Pin=J9-A17
Added Pin To Net: NetName=SLOTGND Pin=J9-A18
Added Pin To Net: NetName=GND Pin=J9-B1
Added Pin To Net: NetName=S9ERR Pin=J9-B2
Added Pin To Net: NetName=S9SDA Pin=J9-B3
Added Pin To Net: NetName=S9TXD Pin=J9-B4
Added Pin To Net: NetName=V3V3SLOT Pin=J9-B5
Added Pin To Net: NetName=S9MISO Pin=J9-B6
Added Pin To Net: NetName=GND Pin=J9-B7
Added Pin To Net: NetName=S9GPIO2 Pin=J9-B8
Added Pin To Net: NetName=S9GPIO4 Pin=J9-B9
Added Pin To Net: NetName=S9GPIO6 Pin=J9-B10
Added Pin To Net: NetName=S9GPIO8 Pin=J9-B11
Added Pin To Net: NetName=V12NEG Pin=J9-B12
Added Pin To Net: NetName=V12 Pin=J9-B13
Added Pin To Net: NetName=V40SG3 Pin=J9-B14
Added Pin To Net: NetName=V40SG3 Pin=J9-B15
Added Pin To Net: NetName=V40SG3 Pin=J9-B16
Added Pin To Net: NetName=V40SG3 Pin=J9-B17
Added Pin To Net: NetName=V40SG3 Pin=J9-B18
Added Pin To Net: NetName=V5SLOT Pin=J10-A1
Added Pin To Net: NetName=S10SIG Pin=J10-A2
Added Pin To Net: NetName=S10SCL Pin=J10-A3
Added Pin To Net: NetName=S10RXD Pin=J10-A4
Added Pin To Net: NetName=SLOTGND Pin=J10-A5
Added Pin To Net: NetName=S10GPIO1 Pin=J10-A8
Added Pin To Net: NetName=S10GPIO3 Pin=J10-A9
Added Pin To Net: NetName=S10GPIO5 Pin=J10-A10
Added Pin To Net: NetName=S10GPIO7 Pin=J10-A11
Added Pin To Net: NetName=SLOTGND Pin=J10-A12
Added Pin To Net: NetName=SLOTGND Pin=J10-A13
Added Pin To Net: NetName=SLOTGND Pin=J10-A14
Added Pin To Net: NetName=SLOTGND Pin=J10-A15
Added Pin To Net: NetName=SLOTGND Pin=J10-A16
Added Pin To Net: NetName=SLOTGND Pin=J10-A17
Added Pin To Net: NetName=SLOTGND Pin=J10-A18
Added Pin To Net: NetName=GND Pin=J10-B1
Added Pin To Net: NetName=S10ERR Pin=J10-B2
Added Pin To Net: NetName=S10SDA Pin=J10-B3
Added Pin To Net: NetName=S10TXD Pin=J10-B4
Added Pin To Net: NetName=V3V3SLOT Pin=J10-B5
Added Pin To Net: NetName=S10MISO Pin=J10-B6
Added Pin To Net: NetName=GND Pin=J10-B7
Added Pin To Net: NetName=S10GPIO2 Pin=J10-B8
Added Pin To Net: NetName=S10GPIO4 Pin=J10-B9
Added Pin To Net: NetName=S10GPIO6 Pin=J10-B10
Added Pin To Net: NetName=S10GPIO8 Pin=J10-B11
Added Pin To Net: NetName=V12NEG Pin=J10-B12
Added Pin To Net: NetName=V12 Pin=J10-B13
Added Pin To Net: NetName=V40SG3 Pin=J10-B14
Added Pin To Net: NetName=V40SG3 Pin=J10-B15
Added Pin To Net: NetName=V40SG3 Pin=J10-B16
Added Pin To Net: NetName=V40SG3 Pin=J10-B17
Added Pin To Net: NetName=V40SG3 Pin=J10-B18
Added Pin To Net: NetName=V5SLOT Pin=J11-A1
Added Pin To Net: NetName=S11SIG Pin=J11-A2
Added Pin To Net: NetName=S11SCL Pin=J11-A3
Added Pin To Net: NetName=S11RXD Pin=J11-A4
Added Pin To Net: NetName=SLOTGND Pin=J11-A5
Added Pin To Net: NetName=S11GPIO1 Pin=J11-A8
Added Pin To Net: NetName=S11GPIO3 Pin=J11-A9
Added Pin To Net: NetName=S11GPIO5 Pin=J11-A10
Added Pin To Net: NetName=S11GPIO7 Pin=J11-A11
Added Pin To Net: NetName=SLOTGND Pin=J11-A12
Added Pin To Net: NetName=SLOTGND Pin=J11-A13
Added Pin To Net: NetName=SLOTGND Pin=J11-A14
Added Pin To Net: NetName=SLOTGND Pin=J11-A15
Added Pin To Net: NetName=SLOTGND Pin=J11-A16
Added Pin To Net: NetName=SLOTGND Pin=J11-A17
Added Pin To Net: NetName=SLOTGND Pin=J11-A18
Added Pin To Net: NetName=GND Pin=J11-B1
Added Pin To Net: NetName=S11ERR Pin=J11-B2
Added Pin To Net: NetName=S11SDA Pin=J11-B3
Added Pin To Net: NetName=S11TXD Pin=J11-B4
Added Pin To Net: NetName=V3V3SLOT Pin=J11-B5
Added Pin To Net: NetName=S11MISO Pin=J11-B6
Added Pin To Net: NetName=GND Pin=J11-B7
Added Pin To Net: NetName=S11GPIO2 Pin=J11-B8
Added Pin To Net: NetName=S11GPIO4 Pin=J11-B9
Added Pin To Net: NetName=S11GPIO6 Pin=J11-B10
Added Pin To Net: NetName=S11GPIO8 Pin=J11-B11
Added Pin To Net: NetName=V12NEG Pin=J11-B12
Added Pin To Net: NetName=V12 Pin=J11-B13
Added Pin To Net: NetName=V40SG3 Pin=J11-B14
Added Pin To Net: NetName=V40SG3 Pin=J11-B15
Added Pin To Net: NetName=V40SG3 Pin=J11-B16
Added Pin To Net: NetName=V40SG3 Pin=J11-B17
Added Pin To Net: NetName=V40SG3 Pin=J11-B18
Added Pin To Net: NetName=V5SLOT Pin=J12-A1
Added Pin To Net: NetName=S12SIG Pin=J12-A2
Added Pin To Net: NetName=S12SCL Pin=J12-A3
Added Pin To Net: NetName=S12RXD Pin=J12-A4
Added Pin To Net: NetName=SLOTGND Pin=J12-A5
Added Pin To Net: NetName=S12GPIO1 Pin=J12-A8
Added Pin To Net: NetName=S12GPIO3 Pin=J12-A9
Added Pin To Net: NetName=S12GPIO5 Pin=J12-A10
Added Pin To Net: NetName=S12GPIO7 Pin=J12-A11
Added Pin To Net: NetName=SLOTGND Pin=J12-A12
Added Pin To Net: NetName=SLOTGND Pin=J12-A13
Added Pin To Net: NetName=SLOTGND Pin=J12-A14
Added Pin To Net: NetName=SLOTGND Pin=J12-A15
Added Pin To Net: NetName=SLOTGND Pin=J12-A16
Added Pin To Net: NetName=SLOTGND Pin=J12-A17
Added Pin To Net: NetName=SLOTGND Pin=J12-A18
Added Pin To Net: NetName=GND Pin=J12-B1
Added Pin To Net: NetName=S12ERR Pin=J12-B2
Added Pin To Net: NetName=S12SDA Pin=J12-B3
Added Pin To Net: NetName=S12TXD Pin=J12-B4
Added Pin To Net: NetName=V3V3SLOT Pin=J12-B5
Added Pin To Net: NetName=S12MISO Pin=J12-B6
Added Pin To Net: NetName=GND Pin=J12-B7
Added Pin To Net: NetName=S12GPIO2 Pin=J12-B8
Added Pin To Net: NetName=S12GPIO4 Pin=J12-B9
Added Pin To Net: NetName=S12GPIO6 Pin=J12-B10
Added Pin To Net: NetName=S12GPIO8 Pin=J12-B11
Added Pin To Net: NetName=V12NEG Pin=J12-B12
Added Pin To Net: NetName=V12 Pin=J12-B13
Added Pin To Net: NetName=V40SG3 Pin=J12-B14
Added Pin To Net: NetName=V40SG3 Pin=J12-B15
Added Pin To Net: NetName=V40SG3 Pin=J12-B16
Added Pin To Net: NetName=V40SG3 Pin=J12-B17
Added Pin To Net: NetName=V40SG3 Pin=J12-B18
Added Pin To Net: NetName=V5SLOT Pin=J13-A1
Added Pin To Net: NetName=S13SIG Pin=J13-A2
Added Pin To Net: NetName=S13SCL Pin=J13-A3
Added Pin To Net: NetName=S13RXD Pin=J13-A4
Added Pin To Net: NetName=SLOTGND Pin=J13-A5
Added Pin To Net: NetName=S13GPIO1 Pin=J13-A8
Added Pin To Net: NetName=S13GPIO3 Pin=J13-A9
Added Pin To Net: NetName=S13GPIO5 Pin=J13-A10
Added Pin To Net: NetName=S13GPIO7 Pin=J13-A11
Added Pin To Net: NetName=SLOTGND Pin=J13-A12
Added Pin To Net: NetName=SLOTGND Pin=J13-A13
Added Pin To Net: NetName=SLOTGND Pin=J13-A14
Added Pin To Net: NetName=SLOTGND Pin=J13-A15
Added Pin To Net: NetName=SLOTGND Pin=J13-A16
Added Pin To Net: NetName=SLOTGND Pin=J13-A17
Added Pin To Net: NetName=SLOTGND Pin=J13-A18
Added Pin To Net: NetName=GND Pin=J13-B1
Added Pin To Net: NetName=S13ERR Pin=J13-B2
Added Pin To Net: NetName=S13SDA Pin=J13-B3
Added Pin To Net: NetName=S13TXD Pin=J13-B4
Added Pin To Net: NetName=V3V3SLOT Pin=J13-B5
Added Pin To Net: NetName=S13MISO Pin=J13-B6
Added Pin To Net: NetName=GND Pin=J13-B7
Added Pin To Net: NetName=S13GPIO2 Pin=J13-B8
Added Pin To Net: NetName=S13GPIO4 Pin=J13-B9
Added Pin To Net: NetName=S13GPIO6 Pin=J13-B10
Added Pin To Net: NetName=S13GPIO8 Pin=J13-B11
Added Pin To Net: NetName=V12NEG Pin=J13-B12
Added Pin To Net: NetName=V12 Pin=J13-B13
Added Pin To Net: NetName=V40SG4 Pin=J13-B14
Added Pin To Net: NetName=V40SG4 Pin=J13-B15
Added Pin To Net: NetName=V40SG4 Pin=J13-B16
Added Pin To Net: NetName=V40SG4 Pin=J13-B17
Added Pin To Net: NetName=V40SG4 Pin=J13-B18
Added Pin To Net: NetName=V5SLOT Pin=J14-A1
Added Pin To Net: NetName=S14SIG Pin=J14-A2
Added Pin To Net: NetName=S14SCL Pin=J14-A3
Added Pin To Net: NetName=S14RXD Pin=J14-A4
Added Pin To Net: NetName=SLOTGND Pin=J14-A5
Added Pin To Net: NetName=S14GPIO1 Pin=J14-A8
Added Pin To Net: NetName=S14GPIO3 Pin=J14-A9
Added Pin To Net: NetName=S14GPIO5 Pin=J14-A10
Added Pin To Net: NetName=S14GPIO7 Pin=J14-A11
Added Pin To Net: NetName=SLOTGND Pin=J14-A12
Added Pin To Net: NetName=SLOTGND Pin=J14-A13
Added Pin To Net: NetName=SLOTGND Pin=J14-A14
Added Pin To Net: NetName=SLOTGND Pin=J14-A15
Added Pin To Net: NetName=SLOTGND Pin=J14-A16
Added Pin To Net: NetName=SLOTGND Pin=J14-A17
Added Pin To Net: NetName=SLOTGND Pin=J14-A18
Added Pin To Net: NetName=GND Pin=J14-B1
Added Pin To Net: NetName=S14ERR Pin=J14-B2
Added Pin To Net: NetName=S14SDA Pin=J14-B3
Added Pin To Net: NetName=S14TXD Pin=J14-B4
Added Pin To Net: NetName=V3V3SLOT Pin=J14-B5
Added Pin To Net: NetName=S14MISO Pin=J14-B6
Added Pin To Net: NetName=GND Pin=J14-B7
Added Pin To Net: NetName=S14GPIO2 Pin=J14-B8
Added Pin To Net: NetName=S14GPIO4 Pin=J14-B9
Added Pin To Net: NetName=S14GPIO6 Pin=J14-B10
Added Pin To Net: NetName=S14GPIO8 Pin=J14-B11
Added Pin To Net: NetName=V12NEG Pin=J14-B12
Added Pin To Net: NetName=V12 Pin=J14-B13
Added Pin To Net: NetName=V40SG4 Pin=J14-B14
Added Pin To Net: NetName=V40SG4 Pin=J14-B15
Added Pin To Net: NetName=V40SG4 Pin=J14-B16
Added Pin To Net: NetName=V40SG4 Pin=J14-B17
Added Pin To Net: NetName=V40SG4 Pin=J14-B18
Added Pin To Net: NetName=V5SLOT Pin=J31-A1
Added Pin To Net: NetName=GND Pin=J31-A5
Added Pin To Net: NetName=SLOTGND Pin=J31-A12
Added Pin To Net: NetName=SLOTGND Pin=J31-A13
Added Pin To Net: NetName=SLOTGND Pin=J31-A14
Added Pin To Net: NetName=SLOTGND Pin=J31-A15
Added Pin To Net: NetName=SLOTGND Pin=J31-A16
Added Pin To Net: NetName=SLOTGND Pin=J31-A17
Added Pin To Net: NetName=SLOTGND Pin=J31-A18
Added Pin To Net: NetName=GND Pin=J31-B1
Added Pin To Net: NetName=V3V3SLOT Pin=J31-B5
Added Pin To Net: NetName=GND Pin=J31-B7
Added Pin To Net: NetName=V12NEG Pin=J31-B12
Added Pin To Net: NetName=V12 Pin=J31-B13
Added Pin To Net: NetName=V40SG4 Pin=J31-B14
Added Pin To Net: NetName=V40SG4 Pin=J31-B15
Added Pin To Net: NetName=V40SG4 Pin=J31-B16
Added Pin To Net: NetName=V40SG4 Pin=J31-B17
Added Pin To Net: NetName=V40SG4 Pin=J31-B18
Added Pin To Net: NetName=V5SLOT Pin=J32-A1
Added Pin To Net: NetName=GND Pin=J32-A5
Added Pin To Net: NetName=SLOTGND Pin=J32-A12
Added Pin To Net: NetName=SLOTGND Pin=J32-A13
Added Pin To Net: NetName=SLOTGND Pin=J32-A14
Added Pin To Net: NetName=SLOTGND Pin=J32-A15
Added Pin To Net: NetName=SLOTGND Pin=J32-A16
Added Pin To Net: NetName=SLOTGND Pin=J32-A17
Added Pin To Net: NetName=SLOTGND Pin=J32-A18
Added Pin To Net: NetName=GND Pin=J32-B1
Added Pin To Net: NetName=V3V3SLOT Pin=J32-B5
Added Pin To Net: NetName=GND Pin=J32-B7
Added Pin To Net: NetName=V12NEG Pin=J32-B12
Added Pin To Net: NetName=V12 Pin=J32-B13
Added Pin To Net: NetName=V40SG4 Pin=J32-B14
Added Pin To Net: NetName=V40SG4 Pin=J32-B15
Added Pin To Net: NetName=V40SG4 Pin=J32-B16
Added Pin To Net: NetName=V40SG4 Pin=J32-B17
Added Pin To Net: NetName=V40SG4 Pin=J32-B18
Added Pin To Net: NetName=GND Pin=O1-2
Added Pin To Net: NetName=GND Pin=O2-2
Added Pin To Net: NetName=V3V3SLOT Pin=P3-1
Added Pin To Net: NetName=V5SLOT Pin=P7-1
Added Pin To Net: NetName=V12 Pin=P9-1
Added Pin To Net: NetName=V12NEG Pin=P11-1
Added Pin To Net: NetName=GND Pin=P12-4
Added Pin To Net: NetName=GND Pin=P12-5
Added Pin To Net: NetName=GND Pin=P12-6
Added Pin To Net: NetName=S1SDA Pin=R5-2
Added Pin To Net: NetName=S1SCL Pin=R6-2
Added Pin To Net: NetName=S2SDA Pin=R8-2
Added Pin To Net: NetName=S2SCL Pin=R9-2
Added Pin To Net: NetName=S3SDA Pin=R11-2
Added Pin To Net: NetName=S3SCL Pin=R12-2
Added Pin To Net: NetName=S4SDA Pin=R14-2
Added Pin To Net: NetName=S4SCL Pin=R15-2
Added Pin To Net: NetName=S5SDA Pin=R17-2
Added Pin To Net: NetName=S5SCL Pin=R18-2
Added Pin To Net: NetName=S6SDA Pin=R20-2
Added Pin To Net: NetName=S6SCL Pin=R21-2
Added Pin To Net: NetName=S7SDA Pin=R23-2
Added Pin To Net: NetName=S7SCL Pin=R24-2
Added Pin To Net: NetName=S8SDA Pin=R27-2
Added Pin To Net: NetName=S8SCL Pin=R28-2
Added Pin To Net: NetName=S9SDA Pin=R31-2
Added Pin To Net: NetName=S9SCL Pin=R32-2
Added Pin To Net: NetName=S10SDA Pin=R34-2
Added Pin To Net: NetName=S10SCL Pin=R35-2
Added Pin To Net: NetName=S11SDA Pin=R37-2
Added Pin To Net: NetName=S11SCL Pin=R38-2
Added Pin To Net: NetName=S12SDA Pin=R40-2
Added Pin To Net: NetName=S12SCL Pin=R41-2
Added Pin To Net: NetName=S13SDA Pin=R43-2
Added Pin To Net: NetName=S13SCL Pin=R44-2
Added Pin To Net: NetName=S14SDA Pin=R46-2
Added Pin To Net: NetName=S14SCL Pin=R47-2
Added Pin To Net: NetName=S15SDA Pin=R49-2
Added Pin To Net: NetName=S15SCL Pin=R50-2
Added Pin To Net: NetName=S16SDA Pin=R53-2
Added Pin To Net: NetName=S16SCL Pin=R54-2
Added Pin To Net: NetName=GND Pin=U1-11
Added Pin To Net: NetName=GND Pin=U1-12
Added Pin To Net: NetName=GND Pin=U1-21
Added Pin To Net: NetName=GND Pin=U1-29
Added Pin To Net: NetName=GND Pin=U1-33
Added Pin To Net: NetName=GND Pin=U2-3
Added Pin To Net: NetName=S1SDA Pin=U3-2
Added Pin To Net: NetName=S1SCL Pin=U3-3
Added Pin To Net: NetName=S2SDA Pin=U3-4
Added Pin To Net: NetName=S2SCL Pin=U3-5
Added Pin To Net: NetName=GND Pin=U3-6
Added Pin To Net: NetName=S3SDA Pin=U3-7
Added Pin To Net: NetName=S3SCL Pin=U3-8
Added Pin To Net: NetName=S4SDA Pin=U3-9
Added Pin To Net: NetName=S4SCL Pin=U3-10
Added Pin To Net: NetName=GND Pin=U3-11
Added Pin To Net: NetName=GND Pin=U3-15
Added Pin To Net: NetName=GND Pin=U3-16
Added Pin To Net: NetName=GND Pin=U4-3
Added Pin To Net: NetName=GND Pin=U5-3
Added Pin To Net: NetName=GND Pin=U6-3
Added Pin To Net: NetName=S5SDA Pin=U7-2
Added Pin To Net: NetName=S5SCL Pin=U7-3
Added Pin To Net: NetName=S6SDA Pin=U7-4
Added Pin To Net: NetName=S6SCL Pin=U7-5
Added Pin To Net: NetName=GND Pin=U7-6
Added Pin To Net: NetName=S7SDA Pin=U7-7
Added Pin To Net: NetName=S7SCL Pin=U7-8
Added Pin To Net: NetName=S8SDA Pin=U7-9
Added Pin To Net: NetName=S8SCL Pin=U7-10
Added Pin To Net: NetName=GND Pin=U7-11
Added Pin To Net: NetName=GND Pin=U7-16
Added Pin To Net: NetName=GND Pin=U9-3
Added Pin To Net: NetName=S9SDA Pin=U10-2
Added Pin To Net: NetName=S9SCL Pin=U10-3
Added Pin To Net: NetName=S10SDA Pin=U10-4
Added Pin To Net: NetName=S10SCL Pin=U10-5
Added Pin To Net: NetName=GND Pin=U10-6
Added Pin To Net: NetName=S11SDA Pin=U10-7
Added Pin To Net: NetName=S11SCL Pin=U10-8
Added Pin To Net: NetName=S12SDA Pin=U10-9
Added Pin To Net: NetName=S12SCL Pin=U10-10
Added Pin To Net: NetName=GND Pin=U10-11
Added Pin To Net: NetName=GND Pin=U10-15
Added Pin To Net: NetName=GND Pin=U11-6
Added Pin To Net: NetName=GND Pin=U11-15
Added Pin To Net: NetName=GND Pin=U11-16
Added Pin To Net: NetName=GND Pin=U12-3
Added Pin To Net: NetName=S13SDA Pin=U13-2
Added Pin To Net: NetName=S13SCL Pin=U13-3
Added Pin To Net: NetName=S14SDA Pin=U13-4
Added Pin To Net: NetName=S14SCL Pin=U13-5
Added Pin To Net: NetName=GND Pin=U13-6
Added Pin To Net: NetName=S15SDA Pin=U13-7
Added Pin To Net: NetName=S15SCL Pin=U13-8
Added Pin To Net: NetName=S16SDA Pin=U13-9
Added Pin To Net: NetName=S16SCL Pin=U13-10
Added Pin To Net: NetName=GND Pin=U13-11
Added Pin To Net: NetName=GND Pin=U15-6
Added Pin To Net: NetName=GND Pin=U15-16
Added Pin To Net: NetName=GND Pin=U16-3
Added Pin To Net: NetName=S1GPIO6 Pin=U17-5
Added Pin To Net: NetName=S1GPIO7 Pin=U17-6
Added Pin To Net: NetName=GND Pin=U17-7
Added Pin To Net: NetName=S4GPIO6 Pin=U17-9
Added Pin To Net: NetName=S4GPIO7 Pin=U17-10
Added Pin To Net: NetName=S5GPIO6 Pin=U17-11
Added Pin To Net: NetName=S5GPIO7 Pin=U17-12
Added Pin To Net: NetName=S11GPIO6 Pin=U17-15
Added Pin To Net: NetName=S11GPIO7 Pin=U17-16
Added Pin To Net: NetName=S12GPIO6 Pin=U17-17
Added Pin To Net: NetName=S12GPIO7 Pin=U17-18
Added Pin To Net: NetName=S13GPIO6 Pin=U17-19
Added Pin To Net: NetName=S13GPIO7 Pin=U17-20
Added Pin To Net: NetName=GND Pin=U17-22
Added Pin To Net: NetName=S6GPIO6 Pin=U17-23
Added Pin To Net: NetName=S6GPIO7 Pin=U17-24
Added Pin To Net: NetName=S7GPIO6 Pin=U17-25
Added Pin To Net: NetName=S7GPIO7 Pin=U17-26
Added Pin To Net: NetName=S8GPIO6 Pin=U17-27
Added Pin To Net: NetName=S8GPIO7 Pin=U17-28
Added Pin To Net: NetName=S14GPIO6 Pin=U17-29
Added Pin To Net: NetName=S14GPIO7 Pin=U17-30
Added Pin To Net: NetName=S10GPIO6 Pin=U17-31
Added Pin To Net: NetName=S10GPIO7 Pin=U17-32
Added Pin To Net: NetName=GND Pin=U17-33
Added Pin To Net: NetName=S9GPIO6 Pin=U17-39
Added Pin To Net: NetName=S9GPIO7 Pin=U17-40
Added Pin To Net: NetName=S15GPIO6 Pin=U17-43
Added Pin To Net: NetName=S15GPIO7 Pin=U17-44
Added Pin To Net: NetName=S2GPIO6 Pin=U17-51
Added Pin To Net: NetName=S2GPIO7 Pin=U17-53
Added Pin To Net: NetName=GND Pin=U17-54
Added Pin To Net: NetName=S1GPIO6 Pin=U17-59
Added Pin To Net: NetName=S1GPIO7 Pin=U17-60
Added Pin To Net: NetName=GND Pin=U18-3
Added Pin To Net: NetName=GND Pin=U19-3
Added Pin To Net: NetName=GND Pin=U20-3
Added Pin To Net: NetName=GND Pin=U21-3
Added Pin To Net: NetName=GND Pin=U22-3
Added Pin To Net: NetName=GND Pin=U23-3
Added Pin To Net: NetName=GND Pin=U24-3
Added Pin To Net: NetName=GND Pin=U25-3
Added Pin To Net: NetName=GND Pin=U26-3
Added Pin To Net: NetName=GND Pin=U27-3
Added Pin To Net: NetName=GND Pin=U28-3
Added Pin To Net: NetName=GND Pin=U29-3
Added Pin To Net: NetName=S1GPIO1 Pin=U30-1
Added Pin To Net: NetName=S2GPIO1 Pin=U30-2
Added Pin To Net: NetName=S3GPIO1 Pin=U30-3
Added Pin To Net: NetName=S4GPIO1 Pin=U30-4
Added Pin To Net: NetName=S5GPIO1 Pin=U30-5
Added Pin To Net: NetName=S6GPIO1 Pin=U30-6
Added Pin To Net: NetName=S7GPIO1 Pin=U30-7
Added Pin To Net: NetName=S8GPIO1 Pin=U30-8
Added Pin To Net: NetName=S9GPIO1 Pin=U30-9
Added Pin To Net: NetName=S10GPIO1 Pin=U30-10
Added Pin To Net: NetName=S11GPIO1 Pin=U30-11
Added Pin To Net: NetName=GND Pin=U30-12
Added Pin To Net: NetName=S12GPIO1 Pin=U30-13
Added Pin To Net: NetName=S13GPIO1 Pin=U30-14
Added Pin To Net: NetName=S14GPIO1 Pin=U30-15
Added Pin To Net: NetName=S15GPIO1 Pin=U30-16
Added Pin To Net: NetName=S16GPIO2 Pin=U30-17
Added Pin To Net: NetName=GND Pin=U31-3
Added Pin To Net: NetName=GND Pin=U32-3
Added Pin To Net: NetName=GND Pin=U33-3
Added Pin To Net: NetName=GND Pin=U34-3
Added Pin To Net: NetName=GND Pin=U35-12
Added Pin To Net: NetName=S1GPIO1 Pin=U36-1
Added Pin To Net: NetName=S1MISO Pin=U36-2
Added Pin To Net: NetName=GND Pin=U36-3
Added Pin To Net: NetName=S5GPIO1 Pin=U37-1
Added Pin To Net: NetName=S5MISO Pin=U37-2
Added Pin To Net: NetName=GND Pin=U37-3
Added Pin To Net: NetName=S9GPIO1 Pin=U38-1
Added Pin To Net: NetName=S9MISO Pin=U38-2
Added Pin To Net: NetName=GND Pin=U38-3
Added Pin To Net: NetName=S13GPIO1 Pin=U39-1
Added Pin To Net: NetName=S13MISO Pin=U39-2
Added Pin To Net: NetName=GND Pin=U39-3
Added Pin To Net: NetName=S2GPIO1 Pin=U40-1
Added Pin To Net: NetName=S2MISO Pin=U40-2
Added Pin To Net: NetName=GND Pin=U40-3
Added Pin To Net: NetName=S6GPIO1 Pin=U41-1
Added Pin To Net: NetName=S6MISO Pin=U41-2
Added Pin To Net: NetName=GND Pin=U41-3
Added Pin To Net: NetName=S10GPIO1 Pin=U42-1
Added Pin To Net: NetName=S10MISO Pin=U42-2
Added Pin To Net: NetName=GND Pin=U42-3
Added Pin To Net: NetName=S14GPIO1 Pin=U43-1
Added Pin To Net: NetName=S14MISO Pin=U43-2
Added Pin To Net: NetName=GND Pin=U43-3
Added Pin To Net: NetName=S3GPIO1 Pin=U44-1
Added Pin To Net: NetName=S3MISO Pin=U44-2
Added Pin To Net: NetName=GND Pin=U44-3
Added Pin To Net: NetName=S7GPIO1 Pin=U45-1
Added Pin To Net: NetName=S7MISO Pin=U45-2
Added Pin To Net: NetName=GND Pin=U45-3
Added Pin To Net: NetName=S11GPIO1 Pin=U46-1
Added Pin To Net: NetName=S11MISO Pin=U46-2
Added Pin To Net: NetName=GND Pin=U46-3
Added Pin To Net: NetName=S15GPIO1 Pin=U47-1
Added Pin To Net: NetName=S15MISO Pin=U47-2
Added Pin To Net: NetName=GND Pin=U47-3
Added Pin To Net: NetName=S4GPIO1 Pin=U48-1
Added Pin To Net: NetName=S4MISO Pin=U48-2
Added Pin To Net: NetName=GND Pin=U48-3
Added Pin To Net: NetName=S8GPIO1 Pin=U49-1
Added Pin To Net: NetName=S8MISO Pin=U49-2
Added Pin To Net: NetName=GND Pin=U49-3
Added Pin To Net: NetName=S12GPIO1 Pin=U50-1
Added Pin To Net: NetName=S12MISO Pin=U50-2
Added Pin To Net: NetName=GND Pin=U50-3
Added Pin To Net: NetName=S16GPIO1 Pin=U51-1
Added Pin To Net: NetName=S16MISO Pin=U51-2
Added Pin To Net: NetName=GND Pin=U51-3
Added Pin To Net: NetName=GND Pin=U52-3
Added Pin To Net: NetName=S10ERR Pin=U53-1
Added Pin To Net: NetName=S11ERR Pin=U53-2
Added Pin To Net: NetName=S12ERR Pin=U53-3
Added Pin To Net: NetName=S13ERR Pin=U53-4
Added Pin To Net: NetName=S14ERR Pin=U53-5
Added Pin To Net: NetName=S15ERR Pin=U53-6
Added Pin To Net: NetName=S16ERR Pin=U53-7
Added Pin To Net: NetName=S1ERR Pin=U53-15
Added Pin To Net: NetName=S2ERR Pin=U53-16
Added Pin To Net: NetName=S3ERR Pin=U53-17
Added Pin To Net: NetName=S4ERR Pin=U53-18
Added Pin To Net: NetName=S5ERR Pin=U53-19
Added Pin To Net: NetName=S6ERR Pin=U53-20
Added Pin To Net: NetName=S7ERR Pin=U53-21
Added Pin To Net: NetName=S8ERR Pin=U53-22
Added Pin To Net: NetName=GND Pin=U53-23
Added Pin To Net: NetName=S9ERR Pin=U53-24
Added Pin To Net: NetName=S10GPIO5 Pin=U54-1
Added Pin To Net: NetName=S11GPIO5 Pin=U54-2
Added Pin To Net: NetName=S12GPIO5 Pin=U54-3
Added Pin To Net: NetName=S13GPIO5 Pin=U54-4
Added Pin To Net: NetName=S14GPIO5 Pin=U54-5
Added Pin To Net: NetName=S15GPIO5 Pin=U54-6
Added Pin To Net: NetName=S16GPIO5 Pin=U54-7
Added Pin To Net: NetName=S1GPIO5 Pin=U54-15
Added Pin To Net: NetName=S2GPIO5 Pin=U54-16
Added Pin To Net: NetName=S3GPIO5 Pin=U54-17
Added Pin To Net: NetName=S4GPIO5 Pin=U54-18
Added Pin To Net: NetName=S5GPIO5 Pin=U54-19
Added Pin To Net: NetName=S6GPIO5 Pin=U54-20
Added Pin To Net: NetName=S7GPIO5 Pin=U54-21
Added Pin To Net: NetName=S8GPIO5 Pin=U54-22
Added Pin To Net: NetName=GND Pin=U54-23
Added Pin To Net: NetName=S9GPIO5 Pin=U54-24
Added Pin To Net: NetName=S10SIG Pin=U55-1
Added Pin To Net: NetName=S11SIG Pin=U55-2
Added Pin To Net: NetName=S12SIG Pin=U55-3
Added Pin To Net: NetName=S13SIG Pin=U55-4
Added Pin To Net: NetName=S14SIG Pin=U55-5
Added Pin To Net: NetName=S15SIG Pin=U55-6
Added Pin To Net: NetName=S16SIG Pin=U55-7
Added Pin To Net: NetName=S1SIG Pin=U55-15
Added Pin To Net: NetName=S2SIG Pin=U55-16
Added Pin To Net: NetName=S3SIG Pin=U55-17
Added Pin To Net: NetName=S4SIG Pin=U55-18
Added Pin To Net: NetName=S5SIG Pin=U55-19
Added Pin To Net: NetName=S6SIG Pin=U55-20
Added Pin To Net: NetName=S7SIG Pin=U55-21
Added Pin To Net: NetName=S8SIG Pin=U55-22
Added Pin To Net: NetName=GND Pin=U55-23
Added Pin To Net: NetName=S9SIG Pin=U55-24
Added Pin To Net: NetName=S3GPIO3 Pin=U56-1
Added Pin To Net: NetName=S3GPIO4 Pin=U56-2
Added Pin To Net: NetName=S3GPIO8 Pin=U56-3
Added Pin To Net: NetName=S4GPIO2 Pin=U56-4
Added Pin To Net: NetName=S4GPIO3 Pin=U56-5
Added Pin To Net: NetName=S4GPIO4 Pin=U56-6
Added Pin To Net: NetName=S4GPIO8 Pin=U56-7
Added Pin To Net: NetName=S1GPIO2 Pin=U56-15
Added Pin To Net: NetName=S1GPIO3 Pin=U56-16
Added Pin To Net: NetName=S1GPIO4 Pin=U56-17
Added Pin To Net: NetName=S1GPIO8 Pin=U56-18
Added Pin To Net: NetName=S2GPIO2 Pin=U56-19
Added Pin To Net: NetName=S2GPIO3 Pin=U56-20
Added Pin To Net: NetName=S2GPIO4 Pin=U56-21
Added Pin To Net: NetName=S2GPIO8 Pin=U56-22
Added Pin To Net: NetName=GND Pin=U56-23
Added Pin To Net: NetName=S3GPIO2 Pin=U56-24
Added Pin To Net: NetName=GND Pin=U57-3
Added Pin To Net: NetName=GND Pin=U58-3
Added Pin To Net: NetName=GND Pin=U59-3
Added Pin To Net: NetName=GND Pin=U60-3
Added Pin To Net: NetName=S7GPIO3 Pin=U61-1
Added Pin To Net: NetName=S7GPIO4 Pin=U61-2
Added Pin To Net: NetName=S7GPIO8 Pin=U61-3
Added Pin To Net: NetName=S8GPIO2 Pin=U61-4
Added Pin To Net: NetName=S8GPIO3 Pin=U61-5
Added Pin To Net: NetName=S8GPIO4 Pin=U61-6
Added Pin To Net: NetName=S8GPIO8 Pin=U61-7
Added Pin To Net: NetName=S5GPIO2 Pin=U61-15
Added Pin To Net: NetName=S5GPIO3 Pin=U61-16
Added Pin To Net: NetName=S5GPIO4 Pin=U61-17
Added Pin To Net: NetName=S5GPIO8 Pin=U61-18
Added Pin To Net: NetName=S6GPIO2 Pin=U61-19
Added Pin To Net: NetName=S6GPIO3 Pin=U61-20
Added Pin To Net: NetName=S6GPIO4 Pin=U61-21
Added Pin To Net: NetName=S6GPIO8 Pin=U61-22
Added Pin To Net: NetName=GND Pin=U61-23
Added Pin To Net: NetName=S7GPIO2 Pin=U61-24
Added Pin To Net: NetName=S11GPIO3 Pin=U62-1
Added Pin To Net: NetName=S11GPIO4 Pin=U62-2
Added Pin To Net: NetName=S11GPIO8 Pin=U62-3
Added Pin To Net: NetName=S12GPIO2 Pin=U62-4
Added Pin To Net: NetName=S12GPIO3 Pin=U62-5
Added Pin To Net: NetName=S12GPIO4 Pin=U62-6
Added Pin To Net: NetName=S12GPIO8 Pin=U62-7
Added Pin To Net: NetName=S9GPIO2 Pin=U62-15
Added Pin To Net: NetName=S9GPIO3 Pin=U62-16
Added Pin To Net: NetName=S9GPIO4 Pin=U62-17
Added Pin To Net: NetName=S9GPIO8 Pin=U62-18
Added Pin To Net: NetName=S10GPIO2 Pin=U62-19
Added Pin To Net: NetName=S10GPIO3 Pin=U62-20
Added Pin To Net: NetName=S10GPIO4 Pin=U62-21
Added Pin To Net: NetName=S10GPIO8 Pin=U62-22
Added Pin To Net: NetName=GND Pin=U62-23
Added Pin To Net: NetName=S11GPIO2 Pin=U62-24
Added Pin To Net: NetName=S15GPIO3 Pin=U63-1
Added Pin To Net: NetName=S15GPIO4 Pin=U63-2
Added Pin To Net: NetName=S15GPIO8 Pin=U63-3
Added Pin To Net: NetName=S16GPIO2 Pin=U63-4
Added Pin To Net: NetName=S16GPIO3 Pin=U63-5
Added Pin To Net: NetName=S16GPIO4 Pin=U63-6
Added Pin To Net: NetName=S16GPIO8 Pin=U63-7
Added Pin To Net: NetName=S13GPIO2 Pin=U63-15
Added Pin To Net: NetName=S13GPIO3 Pin=U63-16
Added Pin To Net: NetName=S13GPIO4 Pin=U63-17
Added Pin To Net: NetName=S13GPIO8 Pin=U63-18
Added Pin To Net: NetName=S14GPIO2 Pin=U63-19
Added Pin To Net: NetName=S14GPIO3 Pin=U63-20
Added Pin To Net: NetName=S14GPIO4 Pin=U63-21
Added Pin To Net: NetName=S14GPIO8 Pin=U63-22
Added Pin To Net: NetName=GND Pin=U63-23
Added Pin To Net: NetName=S15GPIO2 Pin=U63-24
Added Pin To Net: NetName=GND Pin=U64-3
Added Pin To Net: NetName=GND Pin=U65-3
Added Pin To Net: NetName=GND Pin=U66-3
Added Pin To Net: NetName=GND Pin=U67-23
Added Pin To Net: NetName=GND Pin=U68-3
Added Pin To Net: NetName=+5V Pin=J2-10
Added Net: Name=+5V
Added Pin To Net: NetName=CLK12 Pin=O2-3
Added Net: Name=CLK12
Added Pin To Net: NetName=CLK3072 Pin=O1-3
Added Pin To Net: NetName=CLK3072 Pin=U1-3
Added Net: Name=CLK3072
Added Pin To Net: NetName=CSEEPROM Pin=U16-1
Added Pin To Net: NetName=CSEEPROM Pin=U35-17
Added Net: Name=CSEEPROM
Added Pin To Net: NetName=CSES Pin=J31-A8
Added Pin To Net: NetName=CSES Pin=U35-8
Added Pin To Net: NetName=CSES Pin=U52-1
Added Net: Name=CSES
Added Pin To Net: NetName=CSETH Pin=J6-5
Added Pin To Net: NetName=CSETH Pin=U12-1
Added Pin To Net: NetName=CSETH Pin=U35-14
Added Net: Name=CSETH
Added Pin To Net: NetName=CSGEN Pin=U35-9
Added Pin To Net: NetName=CSGEN Pin=U67-9
Added Pin To Net: NetName=CSGEN Pin=U68-1
Added Net: Name=CSGEN
Added Pin To Net: NetName=CSINT Pin=U35-1
Added Pin To Net: NetName=CSINT Pin=U53-9
Added Pin To Net: NetName=CSINT Pin=U57-1
Added Pin To Net: NetName=CSINT Pin=U58-1
Added Net: Name=CSINT
Added Pin To Net: NetName=CSIO0 Pin=U35-4
Added Pin To Net: NetName=CSIO0 Pin=U56-9
Added Pin To Net: NetName=CSIO0 Pin=U60-1
Added Net: Name=CSIO0
Added Pin To Net: NetName=CSIO1 Pin=U35-5
Added Pin To Net: NetName=CSIO1 Pin=U61-9
Added Pin To Net: NetName=CSIO1 Pin=U64-1
Added Net: Name=CSIO1
Added Pin To Net: NetName=CSIO2 Pin=U35-6
Added Pin To Net: NetName=CSIO2 Pin=U62-9
Added Pin To Net: NetName=CSIO2 Pin=U65-1
Added Net: Name=CSIO2
Added Pin To Net: NetName=CSIO3 Pin=U35-7
Added Pin To Net: NetName=CSIO3 Pin=U63-9
Added Pin To Net: NetName=CSIO3 Pin=U66-1
Added Net: Name=CSIO3
Added Pin To Net: NetName=CSLCD Pin=J2-4
Added Pin To Net: NetName=CSLCD Pin=U35-11
Added Net: Name=CSLCD
Added Pin To Net: NetName=CSLSD Pin=J5-4
Added Pin To Net: NetName=CSLSD Pin=U9-1
Added Pin To Net: NetName=CSLSD Pin=U35-13
Added Net: Name=CSLSD
Added Pin To Net: NetName=CSRESET Pin=U35-2
Added Pin To Net: NetName=CSRESET Pin=U54-9
Added Net: Name=CSRESET
Added Pin To Net: NetName=CSSDCARD Pin=U4-1
Added Pin To Net: NetName=CSSDCARD Pin=U35-10
Added Net: Name=CSSDCARD
Added Pin To Net: NetName=CSSIG Pin=U35-3
Added Pin To Net: NetName=CSSIG Pin=U55-9
Added Pin To Net: NetName=CSSIG Pin=U59-1
Added Net: Name=CSSIG
Added Pin To Net: NetName=CSUART Pin=U1-7
Added Pin To Net: NetName=CSUART Pin=U6-1
Added Pin To Net: NetName=CSUART Pin=U35-15
Added Net: Name=CSUART
Added Pin To Net: NetName=CSUSB Pin=U5-1
Added Pin To Net: NetName=CSUSB Pin=U35-16
Added Net: Name=CSUSB
Added Net: Name=EEMISO
Added Pin To Net: NetName=ENDSTOPINT Pin=J31-B2
Added Pin To Net: NetName=ENDSTOPINT Pin=U17-42
Added Net: Name=ENDSTOPINT
Added Pin To Net: NetName=ESMISO Pin=J31-B6
Added Pin To Net: NetName=ESMISO Pin=U52-2
Added Net: Name=ESMISO
Added Pin To Net: NetName=ETHMISO Pin=J6-8
Added Pin To Net: NetName=ETHMISO Pin=U12-2
Added Pin To Net: NetName=ETHMISO Pin=U16-2
Added Net: Name=ETHMISO
Added Pin To Net: NetName=ETHPWDN Pin=J6-10
Added Pin To Net: NetName=ETHPWDN Pin=U67-2
Added Net: Name=ETHPWDN
Added Pin To Net: NetName=ETHRESET Pin=J6-9
Added Pin To Net: NetName=ETHRESET Pin=U67-1
Added Net: Name=ETHRESET
Added Pin To Net: NetName=GENMISO Pin=U67-12
Added Pin To Net: NetName=GENMISO Pin=U68-2
Added Net: Name=GENMISO
Added Pin To Net: NetName=I2CRESET Pin=U3-1
Added Pin To Net: NetName=I2CRESET Pin=U7-1
Added Pin To Net: NetName=I2CRESET Pin=U10-1
Added Pin To Net: NetName=I2CRESET Pin=U11-1
Added Pin To Net: NetName=I2CRESET Pin=U13-1
Added Pin To Net: NetName=I2CRESET Pin=U15-1
Added Pin To Net: NetName=I2CRESET Pin=U67-5
Added Net: Name=I2CRESET
Added Pin To Net: NetName=INTMISO Pin=U53-12
Added Pin To Net: NetName=INTMISO Pin=U57-2
Added Net: Name=INTMISO
Added Pin To Net: NetName=IO0MISO Pin=U56-12
Added Pin To Net: NetName=IO0MISO Pin=U60-2
Added Net: Name=IO0MISO
Added Pin To Net: NetName=IO1MISO Pin=U61-12
Added Pin To Net: NetName=IO1MISO Pin=U64-2
Added Net: Name=IO1MISO
Added Pin To Net: NetName=IO2MISO Pin=U62-12
Added Pin To Net: NetName=IO2MISO Pin=U65-2
Added Net: Name=IO2MISO
Added Pin To Net: NetName=IO3MISO Pin=U63-12
Added Pin To Net: NetName=IO3MISO Pin=U66-2
Added Net: Name=IO3MISO
Added Pin To Net: NetName=LCD_BEEP Pin=J2-1
Added Pin To Net: NetName=LCD_BEEP Pin=U67-22
Added Net: Name=LCD_BEEP
Added Pin To Net: NetName=LCD_BTN_EN1 Pin=J5-5
Added Pin To Net: NetName=LCD_BTN_EN1 Pin=U67-19
Added Net: Name=LCD_BTN_EN1
Added Pin To Net: NetName=LCD_BTN_EN2 Pin=J5-3
Added Pin To Net: NetName=LCD_BTN_EN2 Pin=U67-20
Added Net: Name=LCD_BTN_EN2
Added Pin To Net: NetName=LCD_BTN_ENC Pin=J2-2
Added Pin To Net: NetName=LCD_BTN_ENC Pin=U67-18
Added Net: Name=LCD_BTN_ENC
Added Pin To Net: NetName=LCD_CARD Pin=J5-7
Added Pin To Net: NetName=LCD_CARD Pin=U67-17
Added Net: Name=LCD_CARD
Added Pin To Net: NetName=LCD_KILL Pin=J5-10
Added Pin To Net: NetName=LCD_KILL Pin=U67-21
Added Net: Name=LCD_KILL
Added Pin To Net: NetName=LCD_RESET Pin=J5-8
Added Pin To Net: NetName=LCD_RESET Pin=U67-24
Added Net: Name=LCD_RESET
Added Pin To Net: NetName=LSDMISO Pin=J5-1
Added Pin To Net: NetName=LSDMISO Pin=U9-2
Added Net: Name=LSDMISO
Added Pin To Net: NetName=MISO Pin=U4-4
Added Pin To Net: NetName=MISO Pin=U5-4
Added Pin To Net: NetName=MISO Pin=U6-4
Added Pin To Net: NetName=MISO Pin=U9-4
Added Pin To Net: NetName=MISO Pin=U12-4
Added Pin To Net: NetName=MISO Pin=U16-4
Added Pin To Net: NetName=MISO Pin=U17-38
Added Pin To Net: NetName=MISO Pin=U36-4
Added Pin To Net: NetName=MISO Pin=U37-4
Added Pin To Net: NetName=MISO Pin=U38-4
Added Pin To Net: NetName=MISO Pin=U39-4
Added Pin To Net: NetName=MISO Pin=U40-4
Added Pin To Net: NetName=MISO Pin=U41-4
Added Pin To Net: NetName=MISO Pin=U42-4
Added Pin To Net: NetName=MISO Pin=U43-4
Added Pin To Net: NetName=MISO Pin=U44-4
Added Pin To Net: NetName=MISO Pin=U45-4
Added Pin To Net: NetName=MISO Pin=U46-4
Added Pin To Net: NetName=MISO Pin=U47-4
Added Pin To Net: NetName=MISO Pin=U48-4
Added Pin To Net: NetName=MISO Pin=U49-4
Added Pin To Net: NetName=MISO Pin=U50-4
Added Pin To Net: NetName=MISO Pin=U51-4
Added Pin To Net: NetName=MISO Pin=U52-4
Added Pin To Net: NetName=MISO Pin=U57-4
Added Pin To Net: NetName=MISO Pin=U58-4
Added Pin To Net: NetName=MISO Pin=U59-4
Added Pin To Net: NetName=MISO Pin=U60-4
Added Pin To Net: NetName=MISO Pin=U64-4
Added Pin To Net: NetName=MISO Pin=U65-4
Added Pin To Net: NetName=MISO Pin=U66-4
Added Pin To Net: NetName=MISO Pin=U68-4
Added Net: Name=MISO
Added Pin To Net: NetName=MOSI Pin=U17-35
Added Pin To Net: NetName=MOSI Pin=U18-2
Added Pin To Net: NetName=MOSI Pin=U20-2
Added Pin To Net: NetName=MOSI Pin=U22-2
Added Pin To Net: NetName=MOSI Pin=U24-2
Added Pin To Net: NetName=MOSI Pin=U26-2
Added Pin To Net: NetName=MOSI Pin=U28-2
Added Pin To Net: NetName=MOSI Pin=U31-2
Added Pin To Net: NetName=MOSI Pin=U33-2
Added Net: Name=MOSI
Added Pin To Net: NetName=Net*1_4 Pin=*1-4
Added Pin To Net: NetName=Net*1_4 Pin=U35-18
Added Net: Name=Net*1_4
Added Pin To Net: NetName=NetR4_2 Pin=U1-6
Added Net: Name=NetR4_2
Added Net: Name=NetR26_1
Added Net: Name=NetR30_2
Added Pin To Net: NetName=RESETENDS Pin=J31-A10
Added Pin To Net: NetName=RESETENDS Pin=U67-6
Added Net: Name=RESETENDS
Added Pin To Net: NetName=RESETMISO Pin=U54-12
Added Pin To Net: NetName=RESETMISO Pin=U58-2
Added Net: Name=RESETMISO
Added Pin To Net: NetName=RESETN Pin=U17-52
Added Pin To Net: NetName=RESETN Pin=U53-13
Added Pin To Net: NetName=RESETN Pin=U54-13
Added Pin To Net: NetName=RESETN Pin=U55-13
Added Pin To Net: NetName=RESETN Pin=U56-13
Added Pin To Net: NetName=RESETN Pin=U61-13
Added Pin To Net: NetName=RESETN Pin=U62-13
Added Pin To Net: NetName=RESETN Pin=U63-13
Added Pin To Net: NetName=RESETN Pin=U67-13
Added Net: Name=RESETN
Added Pin To Net: NetName=S17SCL Pin=R33-2
Added Pin To Net: NetName=S17SCL Pin=U11-3
Added Net: Name=S17SCL
Added Pin To Net: NetName=S17SDA Pin=R7-2
Added Pin To Net: NetName=S17SDA Pin=U11-2
Added Net: Name=S17SDA
Added Pin To Net: NetName=S18SCL Pin=R36-2
Added Pin To Net: NetName=S18SCL Pin=U11-5
Added Net: Name=S18SCL
Added Pin To Net: NetName=S18SDA Pin=R10-2
Added Pin To Net: NetName=S18SDA Pin=U11-4
Added Net: Name=S18SDA
Added Pin To Net: NetName=S19SCL Pin=R39-2
Added Pin To Net: NetName=S19SCL Pin=U11-8
Added Net: Name=S19SCL
Added Pin To Net: NetName=S19SDA Pin=R13-2
Added Pin To Net: NetName=S19SDA Pin=U11-7
Added Net: Name=S19SDA
Added Pin To Net: NetName=S20SCL Pin=R42-2
Added Pin To Net: NetName=S20SCL Pin=U11-10
Added Net: Name=S20SCL
Added Pin To Net: NetName=S20SDA Pin=R16-2
Added Pin To Net: NetName=S20SDA Pin=U11-9
Added Net: Name=S20SDA
Added Pin To Net: NetName=S21SCL Pin=R45-2
Added Pin To Net: NetName=S21SCL Pin=U15-3
Added Net: Name=S21SCL
Added Pin To Net: NetName=S21SDA Pin=R19-2
Added Pin To Net: NetName=S21SDA Pin=U15-2
Added Net: Name=S21SDA
Added Pin To Net: NetName=S22SCL Pin=R48-2
Added Pin To Net: NetName=S22SCL Pin=U15-5
Added Net: Name=S22SCL
Added Pin To Net: NetName=S22SDA Pin=R22-2
Added Pin To Net: NetName=S22SDA Pin=U15-4
Added Net: Name=S22SDA
Added Pin To Net: NetName=S23SCL Pin=R51-2
Added Pin To Net: NetName=S23SCL Pin=U15-8
Added Net: Name=S23SCL
Added Pin To Net: NetName=S23SDA Pin=R25-2
Added Pin To Net: NetName=S23SDA Pin=U15-7
Added Net: Name=S23SDA
Added Pin To Net: NetName=S24SCL Pin=R55-2
Added Pin To Net: NetName=S24SCL Pin=U15-10
Added Net: Name=S24SCL
Added Pin To Net: NetName=S24SDA Pin=R29-2
Added Pin To Net: NetName=S24SDA Pin=U15-9
Added Net: Name=S24SDA
Added Pin To Net: NetName=SCK Pin=U17-36
Added Pin To Net: NetName=SCK Pin=U19-2
Added Pin To Net: NetName=SCK Pin=U21-2
Added Pin To Net: NetName=SCK Pin=U23-2
Added Pin To Net: NetName=SCK Pin=U25-2
Added Pin To Net: NetName=SCK Pin=U27-2
Added Pin To Net: NetName=SCK Pin=U29-2
Added Pin To Net: NetName=SCK Pin=U32-2
Added Pin To Net: NetName=SCK Pin=U34-2
Added Net: Name=SCK
Added Pin To Net: NetName=SCL Pin=R52-2
Added Pin To Net: NetName=SCL Pin=U3-12
Added Pin To Net: NetName=SCL Pin=U7-12
Added Pin To Net: NetName=SCL Pin=U10-12
Added Pin To Net: NetName=SCL Pin=U11-12
Added Pin To Net: NetName=SCL Pin=U13-12
Added Pin To Net: NetName=SCL Pin=U15-12
Added Pin To Net: NetName=SCL Pin=U17-50
Added Net: Name=SCL
Added Pin To Net: NetName=SDA Pin=R56-2
Added Pin To Net: NetName=SDA Pin=U3-13
Added Pin To Net: NetName=SDA Pin=U7-13
Added Pin To Net: NetName=SDA Pin=U10-13
Added Pin To Net: NetName=SDA Pin=U11-13
Added Pin To Net: NetName=SDA Pin=U13-13
Added Pin To Net: NetName=SDA Pin=U15-13
Added Pin To Net: NetName=SDA Pin=U17-49
Added Net: Name=SDA
Added Pin To Net: NetName=SDCARD Pin=U67-15
Added Net: Name=SDCARD
Added Pin To Net: NetName=SDMISO Pin=R1-1
Added Pin To Net: NetName=SDMISO Pin=U4-2
Added Net: Name=SDMISO
Added Pin To Net: NetName=SDWP Pin=U67-16
Added Net: Name=SDWP
Added Pin To Net: NetName=SG1CK Pin=J1-A7
Added Pin To Net: NetName=SG1CK Pin=U19-4
Added Net: Name=SG1CK
Added Pin To Net: NetName=SG1MOSI Pin=J1-A6
Added Pin To Net: NetName=SG1MOSI Pin=U18-4
Added Net: Name=SG1MOSI
Added Pin To Net: NetName=SG2CK Pin=J7-A7
Added Pin To Net: NetName=SG2CK Pin=J8-A7
Added Pin To Net: NetName=SG2CK Pin=U21-4
Added Net: Name=SG2CK
Added Pin To Net: NetName=SG2MOSI Pin=J7-A6
Added Pin To Net: NetName=SG2MOSI Pin=J8-A6
Added Pin To Net: NetName=SG2MOSI Pin=U20-4
Added Net: Name=SG2MOSI
Added Pin To Net: NetName=SG3CK Pin=J9-A7
Added Pin To Net: NetName=SG3CK Pin=J10-A7
Added Pin To Net: NetName=SG3CK Pin=J11-A7
Added Pin To Net: NetName=SG3CK Pin=J12-A7
Added Pin To Net: NetName=SG3CK Pin=U23-4
Added Net: Name=SG3CK
Added Pin To Net: NetName=SG3MOSI Pin=J9-A6
Added Pin To Net: NetName=SG3MOSI Pin=J10-A6
Added Pin To Net: NetName=SG3MOSI Pin=J11-A6
Added Pin To Net: NetName=SG3MOSI Pin=J12-A6
Added Pin To Net: NetName=SG3MOSI Pin=U22-4
Added Net: Name=SG3MOSI
Added Pin To Net: NetName=SG4CK Pin=J13-A7
Added Pin To Net: NetName=SG4CK Pin=J14-A7
Added Pin To Net: NetName=SG4CK Pin=J29-A7
Added Pin To Net: NetName=SG4CK Pin=J30-A7
Added Pin To Net: NetName=SG4CK Pin=U25-4
Added Net: Name=SG4CK
Added Pin To Net: NetName=SG4MOSI Pin=J13-A6
Added Pin To Net: NetName=SG4MOSI Pin=J14-A6
Added Pin To Net: NetName=SG4MOSI Pin=J29-A6
Added Pin To Net: NetName=SG4MOSI Pin=J30-A6
Added Pin To Net: NetName=SG4MOSI Pin=U24-4
Added Net: Name=SG4MOSI
Added Pin To Net: NetName=SG5CK Pin=U27-4
Added Pin To Net: NetName=SG5CK Pin=U53-10
Added Pin To Net: NetName=SG5CK Pin=U54-10
Added Pin To Net: NetName=SG5CK Pin=U55-10
Added Pin To Net: NetName=SG5CK Pin=U56-10
Added Net: Name=SG5CK
Added Pin To Net: NetName=SG5MOSI Pin=U26-4
Added Pin To Net: NetName=SG5MOSI Pin=U53-11
Added Pin To Net: NetName=SG5MOSI Pin=U54-11
Added Pin To Net: NetName=SG5MOSI Pin=U55-11
Added Pin To Net: NetName=SG5MOSI Pin=U56-11
Added Net: Name=SG5MOSI
Added Pin To Net: NetName=SG6CK Pin=J31-A7
Added Pin To Net: NetName=SG6CK Pin=U29-4
Added Pin To Net: NetName=SG6CK Pin=U61-10
Added Pin To Net: NetName=SG6CK Pin=U62-10
Added Pin To Net: NetName=SG6CK Pin=U63-10
Added Net: Name=SG6CK
Added Pin To Net: NetName=SG6MOSI Pin=J31-A6
Added Pin To Net: NetName=SG6MOSI Pin=U28-4
Added Pin To Net: NetName=SG6MOSI Pin=U61-11
Added Pin To Net: NetName=SG6MOSI Pin=U62-11
Added Pin To Net: NetName=SG6MOSI Pin=U63-11
Added Net: Name=SG6MOSI
Added Pin To Net: NetName=SG7CK Pin=J2-5
Added Pin To Net: NetName=SG7CK Pin=J5-2
Added Pin To Net: NetName=SG7CK Pin=U32-4
Added Pin To Net: NetName=SG7CK Pin=U67-10
Added Net: Name=SG7CK
Added Pin To Net: NetName=SG7MOSI Pin=J2-3
Added Pin To Net: NetName=SG7MOSI Pin=J5-6
Added Pin To Net: NetName=SG7MOSI Pin=U31-4
Added Pin To Net: NetName=SG7MOSI Pin=U67-11
Added Net: Name=SG7MOSI
Added Pin To Net: NetName=SG8CK Pin=J6-4
Added Pin To Net: NetName=SG8CK Pin=U1-10
Added Pin To Net: NetName=SG8CK Pin=U34-4
Added Net: Name=SG8CK
Added Pin To Net: NetName=SG8MOSI Pin=J6-3
Added Pin To Net: NetName=SG8MOSI Pin=U1-8
Added Pin To Net: NetName=SG8MOSI Pin=U33-4
Added Net: Name=SG8MOSI
Added Pin To Net: NetName=SIGMISO Pin=U55-12
Added Pin To Net: NetName=SIGMISO Pin=U59-2
Added Net: Name=SIGMISO
Added Pin To Net: NetName=SLOTINT Pin=U17-41
Added Pin To Net: NetName=SLOTINT Pin=U53-14
Added Net: Name=SLOTINT
Added Pin To Net: NetName=SPIADDR0 Pin=U17-1
Added Pin To Net: NetName=SPIADDR0 Pin=U30-23
Added Pin To Net: NetName=SPIADDR0 Pin=U35-23
Added Net: Name=SPIADDR0
Added Pin To Net: NetName=SPIADDR1 Pin=U17-2
Added Pin To Net: NetName=SPIADDR1 Pin=U30-22
Added Pin To Net: NetName=SPIADDR1 Pin=U35-22
Added Net: Name=SPIADDR1
Added Pin To Net: NetName=SPIADDR2 Pin=U17-3
Added Pin To Net: NetName=SPIADDR2 Pin=U30-21
Added Pin To Net: NetName=SPIADDR2 Pin=U35-21
Added Net: Name=SPIADDR2
Added Pin To Net: NetName=SPIADDR3 Pin=U17-4
Added Pin To Net: NetName=SPIADDR3 Pin=U30-20
Added Pin To Net: NetName=SPIADDR3 Pin=U35-20
Added Net: Name=SPIADDR3
Added Pin To Net: NetName=SPIADDR4 Pin=*1-2
Added Pin To Net: NetName=SPIADDR4 Pin=U17-13
Added Pin To Net: NetName=SPIADDR4 Pin=U30-18
Added Net: Name=SPIADDR4
Added Pin To Net: NetName=SS Pin=U17-37
Added Pin To Net: NetName=SS Pin=U30-19
Added Pin To Net: NetName=SS Pin=U35-19
Added Net: Name=SS
Added Pin To Net: NetName=SWCLK Pin=U17-57
Added Net: Name=SWCLK
Added Pin To Net: NetName=SWDIO Pin=U17-58
Added Net: Name=SWDIO
Added Pin To Net: NetName=THERM0 Pin=J32-A8
Added Pin To Net: NetName=THERM0 Pin=U17-61
Added Net: Name=THERM0
Added Pin To Net: NetName=THERM1 Pin=J32-B8
Added Pin To Net: NetName=THERM1 Pin=U17-62
Added Net: Name=THERM1
Added Pin To Net: NetName=THERM2 Pin=J32-A9
Added Pin To Net: NetName=THERM2 Pin=U17-63
Added Net: Name=THERM2
Added Pin To Net: NetName=THERM3 Pin=J32-B9
Added Pin To Net: NetName=THERM3 Pin=U17-64
Added Net: Name=THERM3
Added Pin To Net: NetName=THERM4 Pin=J32-A10
Added Pin To Net: NetName=THERM4 Pin=U17-14
Added Net: Name=THERM4
Added Pin To Net: NetName=UAENABLE Pin=J3-5
Added Pin To Net: NetName=UAENABLE Pin=U1-18
Added Net: Name=UAENABLE
Added Pin To Net: NetName=UAGPIO0 Pin=J3-6
Added Pin To Net: NetName=UAGPIO0 Pin=U1-19
Added Net: Name=UAGPIO0
Added Pin To Net: NetName=UAGPIO2 Pin=J3-4
Added Pin To Net: NetName=UAGPIO2 Pin=U1-20
Added Net: Name=UAGPIO2
Added Pin To Net: NetName=UARESET Pin=J3-3
Added Pin To Net: NetName=UARESET Pin=U1-17
Added Net: Name=UARESET
Added Pin To Net: NetName=UARTMISO Pin=U1-9
Added Pin To Net: NetName=UARTMISO Pin=U6-2
Added Net: Name=UARTMISO
Added Pin To Net: NetName=UARTRESET Pin=U1-2
Added Pin To Net: NetName=UARTRESET Pin=U67-3
Added Net: Name=UARTRESET
Added Pin To Net: NetName=UARXD Pin=J3-1
Added Pin To Net: NetName=UARXD Pin=J3-1
Added Pin To Net: NetName=UARXD Pin=U1-1
Added Net: Name=UARXD
Added Pin To Net: NetName=UATXD Pin=J3-8
Added Pin To Net: NetName=UATXD Pin=U1-32
Added Net: Name=UATXD
Added Pin To Net: NetName=UBENABLE Pin=J4-5
Added Pin To Net: NetName=UBENABLE Pin=U1-25
Added Net: Name=UBENABLE
Added Pin To Net: NetName=UBGPIO0 Pin=J4-6
Added Pin To Net: NetName=UBGPIO0 Pin=U1-26
Added Net: Name=UBGPIO0
Added Pin To Net: NetName=UBGPIO2 Pin=J4-4
Added Pin To Net: NetName=UBGPIO2 Pin=U1-27
Added Net: Name=UBGPIO2
Added Pin To Net: NetName=UBRESET Pin=J4-3
Added Pin To Net: NetName=UBRESET Pin=U1-24
Added Net: Name=UBRESET
Added Pin To Net: NetName=UBRXD Pin=J4-1
Added Pin To Net: NetName=UBRXD Pin=J4-1
Added Pin To Net: NetName=UBRXD Pin=U1-23
Added Net: Name=UBRXD
Added Pin To Net: NetName=UBTXD Pin=J4-8
Added Pin To Net: NetName=UBTXD Pin=U1-22
Added Net: Name=UBTXD
Added Pin To Net: NetName=USB5V Pin=P12-1
Added Net: Name=USB5V
Added Pin To Net: NetName=USB_N Pin=P12-2
Added Pin To Net: NetName=USB_N Pin=U17-45
Added Net: Name=USB_N
Added Pin To Net: NetName=USB_P Pin=P12-3
Added Pin To Net: NetName=USB_P Pin=U17-46
Added Net: Name=USB_P
Added Net: Name=USBDNEG
Added Net: Name=USBDPOS
Added Pin To Net: NetName=USBEN Pin=U2-4
Added Net: Name=USBEN
Added Pin To Net: NetName=USBMISO Pin=U5-2
Added Net: Name=USBMISO
Added Net: Name=USBOC
Added Pin To Net: NetName=USBRESET Pin=U67-4
Added Net: Name=USBRESET
Added Pin To Net: NetName=V3V3 Pin=*1-5
Added Pin To Net: NetName=V3V3 Pin=J3-7
Added Pin To Net: NetName=V3V3 Pin=J4-7
Added Pin To Net: NetName=V3V3 Pin=J6-12
Added Pin To Net: NetName=V3V3 Pin=O1-4
Added Pin To Net: NetName=V3V3 Pin=O2-4
Added Pin To Net: NetName=V3V3 Pin=P1-1
Added Pin To Net: NetName=V3V3 Pin=R1-2
Added Pin To Net: NetName=V3V3 Pin=R52-1
Added Pin To Net: NetName=V3V3 Pin=R56-1
Added Pin To Net: NetName=V3V3 Pin=U1-5
Added Pin To Net: NetName=V3V3 Pin=U1-13
Added Pin To Net: NetName=V3V3 Pin=U1-28
Added Pin To Net: NetName=V3V3 Pin=U2-2
Added Pin To Net: NetName=V3V3 Pin=U3-14
Added Pin To Net: NetName=V3V3 Pin=U4-5
Added Pin To Net: NetName=V3V3 Pin=U5-5
Added Pin To Net: NetName=V3V3 Pin=U6-5
Added Pin To Net: NetName=V3V3 Pin=U7-14
Added Pin To Net: NetName=V3V3 Pin=U7-15
Added Pin To Net: NetName=V3V3 Pin=U9-5
Added Pin To Net: NetName=V3V3 Pin=U10-14
Added Pin To Net: NetName=V3V3 Pin=U10-16
Added Pin To Net: NetName=V3V3 Pin=U11-11
Added Pin To Net: NetName=V3V3 Pin=U11-14
Added Pin To Net: NetName=V3V3 Pin=U12-5
Added Pin To Net: NetName=V3V3 Pin=U13-14
Added Pin To Net: NetName=V3V3 Pin=U13-15
Added Pin To Net: NetName=V3V3 Pin=U13-16
Added Pin To Net: NetName=V3V3 Pin=U15-11
Added Pin To Net: NetName=V3V3 Pin=U15-14
Added Pin To Net: NetName=V3V3 Pin=U15-15
Added Pin To Net: NetName=V3V3 Pin=U16-5
Added Pin To Net: NetName=V3V3 Pin=U18-5
Added Pin To Net: NetName=V3V3 Pin=U19-5
Added Pin To Net: NetName=V3V3 Pin=U20-5
Added Pin To Net: NetName=V3V3 Pin=U21-5
Added Pin To Net: NetName=V3V3 Pin=U22-5
Added Pin To Net: NetName=V3V3 Pin=U23-5
Added Pin To Net: NetName=V3V3 Pin=U24-5
Added Pin To Net: NetName=V3V3 Pin=U25-5
Added Pin To Net: NetName=V3V3 Pin=U26-5
Added Pin To Net: NetName=V3V3 Pin=U27-5
Added Pin To Net: NetName=V3V3 Pin=U28-5
Added Pin To Net: NetName=V3V3 Pin=U29-5
Added Pin To Net: NetName=V3V3 Pin=U30-24
Added Pin To Net: NetName=V3V3 Pin=U31-5
Added Pin To Net: NetName=V3V3 Pin=U32-5
Added Pin To Net: NetName=V3V3 Pin=U33-5
Added Pin To Net: NetName=V3V3 Pin=U34-5
Added Pin To Net: NetName=V3V3 Pin=U35-24
Added Pin To Net: NetName=V3V3 Pin=U36-5
Added Pin To Net: NetName=V3V3 Pin=U37-5
Added Pin To Net: NetName=V3V3 Pin=U38-5
Added Pin To Net: NetName=V3V3 Pin=U39-5
Added Pin To Net: NetName=V3V3 Pin=U40-5
Added Pin To Net: NetName=V3V3 Pin=U41-5
Added Pin To Net: NetName=V3V3 Pin=U42-5
Added Pin To Net: NetName=V3V3 Pin=U43-5
Added Pin To Net: NetName=V3V3 Pin=U44-5
Added Pin To Net: NetName=V3V3 Pin=U45-5
Added Pin To Net: NetName=V3V3 Pin=U46-5
Added Pin To Net: NetName=V3V3 Pin=U47-5
Added Pin To Net: NetName=V3V3 Pin=U48-5
Added Pin To Net: NetName=V3V3 Pin=U49-5
Added Pin To Net: NetName=V3V3 Pin=U50-5
Added Pin To Net: NetName=V3V3 Pin=U51-5
Added Pin To Net: NetName=V3V3 Pin=U52-5
Added Pin To Net: NetName=V3V3 Pin=U53-8
Added Pin To Net: NetName=V3V3 Pin=U54-8
Added Pin To Net: NetName=V3V3 Pin=U55-8
Added Pin To Net: NetName=V3V3 Pin=U56-8
Added Pin To Net: NetName=V3V3 Pin=U57-5
Added Pin To Net: NetName=V3V3 Pin=U58-5
Added Pin To Net: NetName=V3V3 Pin=U59-5
Added Pin To Net: NetName=V3V3 Pin=U60-5
Added Pin To Net: NetName=V3V3 Pin=U61-8
Added Pin To Net: NetName=V3V3 Pin=U62-8
Added Pin To Net: NetName=V3V3 Pin=U63-8
Added Pin To Net: NetName=V3V3 Pin=U64-5
Added Pin To Net: NetName=V3V3 Pin=U65-5
Added Pin To Net: NetName=V3V3 Pin=U66-5
Added Pin To Net: NetName=V3V3 Pin=U67-8
Added Pin To Net: NetName=V3V3 Pin=U68-5
Added Net: Name=V3V3
Added Pin To Net: NetName=V3V4 Pin=J6-11
Added Net: Name=V3V4
Added Pin To Net: NetName=V5 Pin=P5-1
Added Pin To Net: NetName=V5 Pin=R5-1
Added Pin To Net: NetName=V5 Pin=R6-1
Added Pin To Net: NetName=V5 Pin=R7-1
Added Pin To Net: NetName=V5 Pin=R8-1
Added Pin To Net: NetName=V5 Pin=R9-1
Added Pin To Net: NetName=V5 Pin=R10-1
Added Pin To Net: NetName=V5 Pin=R11-1
Added Pin To Net: NetName=V5 Pin=R12-1
Added Pin To Net: NetName=V5 Pin=R13-1
Added Pin To Net: NetName=V5 Pin=R14-1
Added Pin To Net: NetName=V5 Pin=R15-1
Added Pin To Net: NetName=V5 Pin=R16-1
Added Pin To Net: NetName=V5 Pin=R17-1
Added Pin To Net: NetName=V5 Pin=R18-1
Added Pin To Net: NetName=V5 Pin=R19-1
Added Pin To Net: NetName=V5 Pin=R20-1
Added Pin To Net: NetName=V5 Pin=R21-1
Added Pin To Net: NetName=V5 Pin=R22-1
Added Pin To Net: NetName=V5 Pin=R23-1
Added Pin To Net: NetName=V5 Pin=R24-1
Added Pin To Net: NetName=V5 Pin=R25-1
Added Pin To Net: NetName=V5 Pin=R27-1
Added Pin To Net: NetName=V5 Pin=R28-1
Added Pin To Net: NetName=V5 Pin=R29-1
Added Pin To Net: NetName=V5 Pin=R31-1
Added Pin To Net: NetName=V5 Pin=R32-1
Added Pin To Net: NetName=V5 Pin=R33-1
Added Pin To Net: NetName=V5 Pin=R34-1
Added Pin To Net: NetName=V5 Pin=R35-1
Added Pin To Net: NetName=V5 Pin=R36-1
Added Pin To Net: NetName=V5 Pin=R37-1
Added Pin To Net: NetName=V5 Pin=R38-1
Added Pin To Net: NetName=V5 Pin=R39-1
Added Pin To Net: NetName=V5 Pin=R40-1
Added Pin To Net: NetName=V5 Pin=R41-1
Added Pin To Net: NetName=V5 Pin=R42-1
Added Pin To Net: NetName=V5 Pin=R43-1
Added Pin To Net: NetName=V5 Pin=R44-1
Added Pin To Net: NetName=V5 Pin=R45-1
Added Pin To Net: NetName=V5 Pin=R46-1
Added Pin To Net: NetName=V5 Pin=R47-1
Added Pin To Net: NetName=V5 Pin=R48-1
Added Pin To Net: NetName=V5 Pin=R49-1
Added Pin To Net: NetName=V5 Pin=R50-1
Added Pin To Net: NetName=V5 Pin=R51-1
Added Pin To Net: NetName=V5 Pin=R53-1
Added Pin To Net: NetName=V5 Pin=R54-1
Added Pin To Net: NetName=V5 Pin=R55-1
Added Net: Name=V5
Added Class: Name=Sheet0_Top
Added Class: Name=Sheet2_IoExp
Added Class: Name=Sheet4_GenIo
Added Member To Class: ClassName=Sheet3_CPU Member=Component *1 Inverter
Added Member To Class: ClassName=Sheet1_PciExpress Member=Component J31 PCI Express Connector - Saddle
Added Member To Class: ClassName=Sheet1_PciExpress Member=Component J32 PCI Express Connector - Saddle
Added Member To Class: ClassName=Sheet3_CPU Member=Component U17 SAMD21TQFP64
Added Member To Class: ClassName=Sheet3_CPU Member=Component U18 Buffer
Added Member To Class: ClassName=Sheet3_CPU Member=Component U19 Buffer
Added Member To Class: ClassName=Sheet3_CPU Member=Component U20 Buffer
Added Member To Class: ClassName=Sheet3_CPU Member=Component U21 Buffer
Added Member To Class: ClassName=Sheet3_CPU Member=Component U22 Buffer
Added Member To Class: ClassName=Sheet3_CPU Member=Component U23 Buffer
Added Member To Class: ClassName=Sheet3_CPU Member=Component U24 Buffer
Added Member To Class: ClassName=Sheet3_CPU Member=Component U25 Buffer
Added Member To Class: ClassName=Sheet3_CPU Member=Component U26 Buffer
Added Member To Class: ClassName=Sheet3_CPU Member=Component U27 Buffer
Added Member To Class: ClassName=Sheet3_CPU Member=Component U28 Buffer
Added Member To Class: ClassName=Sheet3_CPU Member=Component U29 Buffer
Added Member To Class: ClassName=Sheet3_CPU Member=Component U30 4to16 Decoder
Added Member To Class: ClassName=Sheet3_CPU Member=Component U31 Buffer
Added Member To Class: ClassName=Sheet3_CPU Member=Component U32 Buffer
Added Member To Class: ClassName=Sheet3_CPU Member=Component U33 Buffer
Added Member To Class: ClassName=Sheet3_CPU Member=Component U34 Buffer
Added Member To Class: ClassName=Sheet3_CPU Member=Component U35 4to16 Decoder
Added Member To Class: ClassName=Sheet1_PciExpress Member=Component U36 Buffer
Added Member To Class: ClassName=Sheet1_PciExpress Member=Component U37 Buffer
Added Member To Class: ClassName=Sheet1_PciExpress Member=Component U38 Buffer
Added Member To Class: ClassName=Sheet1_PciExpress Member=Component U39 Buffer
Added Member To Class: ClassName=Sheet1_PciExpress Member=Component U40 Buffer
Added Member To Class: ClassName=Sheet1_PciExpress Member=Component U41 Buffer
Added Member To Class: ClassName=Sheet1_PciExpress Member=Component U42 Buffer
Added Member To Class: ClassName=Sheet1_PciExpress Member=Component U43 Buffer
Added Member To Class: ClassName=Sheet1_PciExpress Member=Component U44 Buffer
Added Member To Class: ClassName=Sheet1_PciExpress Member=Component U45 Buffer
Added Member To Class: ClassName=Sheet1_PciExpress Member=Component U46 Buffer
Added Member To Class: ClassName=Sheet1_PciExpress Member=Component U47 Buffer
Added Member To Class: ClassName=Sheet1_PciExpress Member=Component U48 Buffer
Added Member To Class: ClassName=Sheet1_PciExpress Member=Component U49 Buffer
Added Member To Class: ClassName=Sheet1_PciExpress Member=Component U50 Buffer
Added Member To Class: ClassName=Sheet1_PciExpress Member=Component U51 Buffer
Added Member To Class: ClassName=Sheet1_PciExpress Member=Component U52 Buffer
Added Room: Name=Sheet0_Top
Added Room: Name=Sheet2_IoExp
Added Room: Name=Sheet4_GenIo
