Change Component Designator: OldDesignator=C1 NewDesignator=C11
Change Component Designator: OldDesignator=C2 NewDesignator=C12
Change Component Designator: OldDesignator=C3 NewDesignator=C1
Change Component Designator: OldDesignator=C4 NewDesignator=C2
Change Component Designator: OldDesignator=C5 NewDesignator=C3
Change Component Designator: OldDesignator=C6 NewDesignator=C4
Change Component Designator: OldDesignator=C7 NewDesignator=C5
Change Component Designator: OldDesignator=C8 NewDesignator=C6
Change Component Designator: OldDesignator=C9 NewDesignator=C7
Change Component Designator: OldDesignator=C10 NewDesignator=C8
Change Component Designator: OldDesignator=C11 NewDesignator=C9
Change Component Designator: OldDesignator=C12 NewDesignator=C10
Change Component Designator: OldDesignator=C38 NewDesignator=C47
Change Component Designator: OldDesignator=C39 NewDesignator=C57
Change Component Designator: OldDesignator=C40 NewDesignator=C67
Change Component Designator: OldDesignator=C41 NewDesignator=C38
Change Component Designator: OldDesignator=C42 NewDesignator=C48
Change Component Designator: OldDesignator=C43 NewDesignator=C58
Change Component Designator: OldDesignator=C44 NewDesignator=C68
Change Component Designator: OldDesignator=C45 NewDesignator=C39
Change Component Designator: OldDesignator=C46 NewDesignator=C49
Change Component Designator: OldDesignator=C47 NewDesignator=C59
Change Component Designator: OldDesignator=C48 NewDesignator=C69
Change Component Designator: OldDesignator=C49 NewDesignator=C40
Change Component Designator: OldDesignator=C51 NewDesignator=C60
Change Component Designator: OldDesignator=C52 NewDesignator=C70
Change Component Designator: OldDesignator=C53 NewDesignator=C41
Change Component Designator: OldDesignator=C54 NewDesignator=C51
Change Component Designator: OldDesignator=C55 NewDesignator=C61
Change Component Designator: OldDesignator=C56 NewDesignator=C71
Change Component Designator: OldDesignator=C57 NewDesignator=C42
Change Component Designator: OldDesignator=C58 NewDesignator=C52
Change Component Designator: OldDesignator=C59 NewDesignator=C62
Change Component Designator: OldDesignator=C60 NewDesignator=C72
Change Component Designator: OldDesignator=C61 NewDesignator=C43
Change Component Designator: OldDesignator=C62 NewDesignator=C53
Change Component Designator: OldDesignator=C64 NewDesignator=C73
Change Component Designator: OldDesignator=C65 NewDesignator=C44
Change Component Designator: OldDesignator=C66 NewDesignator=C54
Change Component Designator: OldDesignator=C67 NewDesignator=C64
Change Component Designator: OldDesignator=C68 NewDesignator=C74
Change Component Designator: OldDesignator=C69 NewDesignator=C45
Change Component Designator: OldDesignator=C70 NewDesignator=C55
Change Component Designator: OldDesignator=C71 NewDesignator=C65
Change Component Designator: OldDesignator=C72 NewDesignator=C75
Change Component Designator: OldDesignator=C73 NewDesignator=C46
Change Component Designator: OldDesignator=C74 NewDesignator=C56
Change Component Designator: OldDesignator=C75 NewDesignator=C66
