Added Pin To Net: NetName=V3V3SLOT Pin=C38-1
Added Pin To Net: NetName=V5 Pin=C39-1
Added Pin To Net: NetName=V5SLOT Pin=C40-1
Added Pin To Net: NetName=V3V3SLOT Pin=C42-1
Added Pin To Net: NetName=V5 Pin=C43-1
Added Pin To Net: NetName=V5SLOT Pin=C44-1
Added Class: Name=Sheet5_Bypass
Added Member To Class: ClassName=Sheet3_CPU Member=Component C6 CAP-NONPOL
