Change Component Designator: Old Designator=U? New Designator=U53
Change Component Designator: Old Designator=U? New Designator=U54
Change Component Designator: Old Designator=U? New Designator=U55
Change Component Designator: Old Designator=U? New Designator=U56
Change Component Designator: Old Designator=U? New Designator=U57
Change Component Designator: Old Designator=U? New Designator=U58
Change Component Designator: Old Designator=U? New Designator=U59
Change Component Designator: Old Designator=U? New Designator=U60
Change Component Designator: Old Designator=U? New Designator=U61
Change Component Designator: Old Designator=U? New Designator=U62
Change Component Designator: Old Designator=U? New Designator=U63
Change Component Designator: Old Designator=U? New Designator=U64
Change Component Designator: Old Designator=U? New Designator=U65
Change Component Designator: Old Designator=U? New Designator=U66
Change Component Designator: Old Designator=U? New Designator=U67
Change Component Designator: Old Designator=U? New Designator=U68
