Change Component Designator: Old Designator=*? New Designator=*33
Change Component Designator: Old Designator=*? New Designator=*34
Change Component Designator: Old Designator=*? New Designator=*35
Change Component Designator: Old Designator=*? New Designator=*36
Change Component Designator: Old Designator=*? New Designator=*37
Change Component Designator: Old Designator=*? New Designator=*38
Change Component Designator: Old Designator=*? New Designator=*39
Change Component Designator: Old Designator=*? New Designator=*40
Change Component Designator: Old Designator=*? New Designator=*41
Change Component Designator: Old Designator=*? New Designator=*42
Change Component Designator: Old Designator=*? New Designator=*43
Change Component Designator: Old Designator=*? New Designator=*44
Change Component Designator: Old Designator=*? New Designator=*45
Change Component Designator: Old Designator=*? New Designator=*46
Change Component Designator: Old Designator=*? New Designator=*47
Change Component Designator: Old Designator=*? New Designator=*48
Change Component Designator: Old Designator=*? New Designator=*49
Change Component Designator: Old Designator=*? New Designator=*50
Change Component Designator: Old Designator=*? New Designator=*51
Change Component Designator: Old Designator=*? New Designator=*52
