Replace Part *? SN74LVC1G34DRLR in Z:\3dprinter\fastcar\pcbdesign\Sheet3_CPU.SchDoc with SN74LVC1G34DRLR from fastcar.SchLib
Replace Part *? SN74LVC1G34DRLR in Z:\3dprinter\fastcar\pcbdesign\Sheet3_CPU.SchDoc with SN74LVC1G34DRLR from fastcar.SchLib
Replace Part *? SN74LVC1G34DRLR in Z:\3dprinter\fastcar\pcbdesign\Sheet3_CPU.SchDoc with SN74LVC1G34DRLR from fastcar.SchLib
Replace Part *? SN74LVC1G34DRLR in Z:\3dprinter\fastcar\pcbdesign\Sheet3_CPU.SchDoc with SN74LVC1G34DRLR from fastcar.SchLib
Replace Part *? SN74LVC1G34DRLR in Z:\3dprinter\fastcar\pcbdesign\Sheet3_CPU.SchDoc with SN74LVC1G34DRLR from fastcar.SchLib
Replace Part *? SN74LVC1G34DRLR in Z:\3dprinter\fastcar\pcbdesign\Sheet3_CPU.SchDoc with SN74LVC1G34DRLR from fastcar.SchLib
Replace Part *? SN74LVC1G34DRLR in Z:\3dprinter\fastcar\pcbdesign\Sheet3_CPU.SchDoc with SN74LVC1G34DRLR from fastcar.SchLib
Replace Part *? SN74LVC1G34DRLR in Z:\3dprinter\fastcar\pcbdesign\Sheet3_CPU.SchDoc with SN74LVC1G34DRLR from fastcar.SchLib
Replace Part *? SN74LVC1G34DRLR in Z:\3dprinter\fastcar\pcbdesign\Sheet3_CPU.SchDoc with SN74LVC1G34DRLR from fastcar.SchLib
Replace Part *? SN74LVC1G34DRLR in Z:\3dprinter\fastcar\pcbdesign\Sheet3_CPU.SchDoc with SN74LVC1G34DRLR from fastcar.SchLib
Replace Part *? SN74LVC1G34DRLR in Z:\3dprinter\fastcar\pcbdesign\Sheet3_CPU.SchDoc with SN74LVC1G34DRLR from fastcar.SchLib
Replace Part *? SN74LVC1G34DRLR in Z:\3dprinter\fastcar\pcbdesign\Sheet3_CPU.SchDoc with SN74LVC1G34DRLR from fastcar.SchLib
Replace Part *? SN74LVC1G34DRLR in Z:\3dprinter\fastcar\pcbdesign\Sheet3_CPU.SchDoc with SN74LVC1G34DRLR from fastcar.SchLib
Replace Part *? SN74LVC1G34DRLR in Z:\3dprinter\fastcar\pcbdesign\Sheet3_CPU.SchDoc with SN74LVC1G34DRLR from fastcar.SchLib
Replace Part *? SN74LVC1G34DRLR in Z:\3dprinter\fastcar\pcbdesign\Sheet3_CPU.SchDoc with SN74LVC1G34DRLR from fastcar.SchLib
Replace Part *? SN74LVC1G34DRLR in Z:\3dprinter\fastcar\pcbdesign\Sheet3_CPU.SchDoc with SN74LVC1G34DRLR from fastcar.SchLib
Replace Part *? SN74AHC1G04DRLR in Z:\3dprinter\fastcar\pcbdesign\Sheet3_CPU.SchDoc with SN74AHC1G04DRLR from fastcar.SchLib
Replace Part *? CD74HC154M in Z:\3dprinter\fastcar\pcbdesign\Sheet3_CPU.SchDoc with CD74HC154M from fastcar.SchLib
Replace Part *? CD74HC154M in Z:\3dprinter\fastcar\pcbdesign\Sheet3_CPU.SchDoc with CD74HC154M from fastcar.SchLib
Replace Part *? SAMD21TQFP64 in Z:\3dprinter\fastcar\pcbdesign\Sheet3_CPU.SchDoc with SAMD21TQFP64 from fastcar.SchLib
