Change Component Designator: Old Designator=*25 New Designator=*?
Change Component Designator: Old Designator=*26 New Designator=*?
Change Component Designator: Old Designator=*27 New Designator=*?
Change Component Designator: Old Designator=*28 New Designator=*?
Change Component Designator: Old Designator=*29 New Designator=*?
Change Component Designator: Old Designator=*30 New Designator=*?
Change Component Designator: Old Designator=*31 New Designator=*?
Change Component Designator: Old Designator=*32 New Designator=*?
Change Component Designator: Old Designator=*33 New Designator=*?
Change Component Designator: Old Designator=*34 New Designator=*?
Change Component Designator: Old Designator=*35 New Designator=*?
Change Component Designator: Old Designator=*36 New Designator=*?
Change Component Designator: Old Designator=*37 New Designator=*?
Change Component Designator: Old Designator=*38 New Designator=*?
Change Component Designator: Old Designator=*39 New Designator=*?
Change Component Designator: Old Designator=*40 New Designator=*?
Change Component Designator: Old Designator=*41 New Designator=*?
Change Component Designator: Old Designator=*42 New Designator=*?
Change Component Designator: Old Designator=*43 New Designator=*?
Change Component Designator: Old Designator=*44 New Designator=*?
