Change Component Designator: Old Designator=U54 New Designator=U?
Change Component Designator: Old Designator=U55 New Designator=U?
Change Component Designator: Old Designator=U56 New Designator=U?
Change Component Designator: Old Designator=U57 New Designator=U?
Change Component Designator: Old Designator=U58 New Designator=U?
Change Component Designator: Old Designator=U59 New Designator=U?
Change Component Designator: Old Designator=U60 New Designator=U?
Change Component Designator: Old Designator=U61 New Designator=U?
Change Component Designator: Old Designator=U62 New Designator=U?
Change Component Designator: Old Designator=U63 New Designator=U?
Change Component Designator: Old Designator=U64 New Designator=U?
Change Component Designator: Old Designator=U65 New Designator=U?
Change Component Designator: Old Designator=U66 New Designator=U?
Change Component Designator: Old Designator=U67 New Designator=U?
Change Component Designator: Old Designator=U68 New Designator=U?
Change Component Designator: Old Designator=U69 New Designator=U?
