Change Component Designator: Old Designator=P1 New Designator=P2
Change Component Designator: Old Designator=P2 New Designator=P4
Change Component Designator: Old Designator=P4 New Designator=P5
Change Component Designator: Old Designator=P5 New Designator=P7
Change Component Designator: Old Designator=P6 New Designator=P8
Change Component Designator: Old Designator=P7 New Designator=P10
Change Component Designator: Old Designator=P8 New Designator=P11
Change Component Designator: Old Designator=P9 New Designator=P13
Change Component Designator: Old Designator=P10 New Designator=P14
Change Component Designator: Old Designator=P11 New Designator=P16
Change Component Designator: Old Designator=P12 New Designator=P6
Change Component Designator: Old Designator=P13 New Designator=P9
Change Component Designator: Old Designator=P14 New Designator=P12
