Change Component Designator: Old Designator=J* New Designator=J*?
Change Component Designator: Old Designator=J* New Designator=J*?
Change Component Designator: Old Designator=J* New Designator=J*?
Change Component Designator: Old Designator=J* New Designator=J*?
Change Component Designator: Old Designator=J* New Designator=J*?
