Change Component Designator: Old Designator=*? New Designator=*62
Change Component Designator: Old Designator=*? New Designator=*63
Change Component Designator: Old Designator=*? New Designator=*64
Change Component Designator: Old Designator=*? New Designator=*65
Change Component Designator: Old Designator=*? New Designator=*66
Change Component Designator: Old Designator=*? New Designator=*67
Change Component Designator: Old Designator=*? New Designator=*68
Change Component Designator: Old Designator=*? New Designator=*69
Change Component Designator: Old Designator=*? New Designator=*70
Change Component Designator: Old Designator=*? New Designator=*71
Change Component Designator: Old Designator=*? New Designator=*72
Change Component Designator: Old Designator=*? New Designator=*73
Change Component Designator: Old Designator=*? New Designator=*74
Change Component Designator: Old Designator=*? New Designator=*75
Change Component Designator: Old Designator=*? New Designator=*76
Change Component Designator: Old Designator=*? New Designator=*77
