Replace Part *? B4B-PH-K-S(LF)(SN) in Z:\3dprinter\fastcar\pcbdesign\Sheet4_GenIo.SchDoc with B4B-PH-K-S(LF)(SN) from fastcar.SchLib
Replace Part *? B4B-PH-K-S(LF)(SN) in Z:\3dprinter\fastcar\pcbdesign\Sheet4_GenIo.SchDoc with B4B-PH-K-S(LF)(SN) from fastcar.SchLib
Replace Part *? B4B-PH-K-S(LF)(SN) in Z:\3dprinter\fastcar\pcbdesign\Sheet4_GenIo.SchDoc with B4B-PH-K-S(LF)(SN) from fastcar.SchLib
Replace Part *? B4B-PH-K-S(LF)(SN) in Z:\3dprinter\fastcar\pcbdesign\Sheet4_GenIo.SchDoc with B4B-PH-K-S(LF)(SN) from fastcar.SchLib
Replace Part *? B4B-PH-K-S(LF)(SN) in Z:\3dprinter\fastcar\pcbdesign\Sheet4_GenIo.SchDoc with B4B-PH-K-S(LF)(SN) from fastcar.SchLib
Replace Part *? B4B-PH-K-S(LF)(SN) in Z:\3dprinter\fastcar\pcbdesign\Sheet4_GenIo.SchDoc with B4B-PH-K-S(LF)(SN) from fastcar.SchLib
Replace Part *? B4B-PH-K-S(LF)(SN) in Z:\3dprinter\fastcar\pcbdesign\Sheet4_GenIo.SchDoc with B4B-PH-K-S(LF)(SN) from fastcar.SchLib
Replace Part *? B4B-PH-K-S(LF)(SN) in Z:\3dprinter\fastcar\pcbdesign\Sheet4_GenIo.SchDoc with B4B-PH-K-S(LF)(SN) from fastcar.SchLib
Replace Part *? PCA9546A in Z:\3dprinter\fastcar\pcbdesign\Sheet4_GenIo.SchDoc with PCA9546A from fastcar.SchLib
Replace Part *? PCA9546A in Z:\3dprinter\fastcar\pcbdesign\Sheet4_GenIo.SchDoc with PCA9546A from fastcar.SchLib
Replace Part *? PCA9546A in Z:\3dprinter\fastcar\pcbdesign\Sheet4_GenIo.SchDoc with PCA9546A from fastcar.SchLib
Replace Part *? PCA9546A in Z:\3dprinter\fastcar\pcbdesign\Sheet4_GenIo.SchDoc with PCA9546A from fastcar.SchLib
Replace Part *? PCA9546A in Z:\3dprinter\fastcar\pcbdesign\Sheet4_GenIo.SchDoc with PCA9546A from fastcar.SchLib
Replace Part *? PCA9546A in Z:\3dprinter\fastcar\pcbdesign\Sheet4_GenIo.SchDoc with PCA9546A from fastcar.SchLib
Replace Part *? SN74LVC1G125DRLR in Z:\3dprinter\fastcar\pcbdesign\Sheet4_GenIo.SchDoc with SN74LVC1G125DRLR from fastcar.SchLib
Replace Part *? TPS2021D in Z:\3dprinter\fastcar\pcbdesign\Sheet4_GenIo.SchDoc with TPS2021D from fastcar.SchLib
Replace Part *? MAX3421EETJ+ in Z:\3dprinter\fastcar\pcbdesign\Sheet4_GenIo.SchDoc with MAX3421EETJ+ from fastcar.SchLib
Replace Part *? SN74LVC1G125DRLR in Z:\3dprinter\fastcar\pcbdesign\Sheet4_GenIo.SchDoc with SN74LVC1G125DRLR from fastcar.SchLib
Replace Part *? SC16IS762IBS in Z:\3dprinter\fastcar\pcbdesign\Sheet4_GenIo.SchDoc with SC16IS762IBS from fastcar.SchLib
Replace Part *? SN74LVC1G125DRLR in Z:\3dprinter\fastcar\pcbdesign\Sheet4_GenIo.SchDoc with SN74LVC1G125DRLR from fastcar.SchLib
Replace Part *? AT25512N-SH-B in Z:\3dprinter\fastcar\pcbdesign\Sheet4_GenIo.SchDoc with AT25512N-SH-B from fastcar.SchLib
Replace Part *? SN74LVC1G125DRLR in Z:\3dprinter\fastcar\pcbdesign\Sheet4_GenIo.SchDoc with SN74LVC1G125DRLR from fastcar.SchLib
Replace Part *? SN74LVC1G125DRLR in Z:\3dprinter\fastcar\pcbdesign\Sheet4_GenIo.SchDoc with SN74LVC1G125DRLR from fastcar.SchLib
Replace Part *? SN74LVC1G125DRLR in Z:\3dprinter\fastcar\pcbdesign\Sheet4_GenIo.SchDoc with SN74LVC1G125DRLR from fastcar.SchLib
Replace Part J*? NPPC042KFMS-RC in Z:\3dprinter\fastcar\pcbdesign\Sheet4_GenIo.SchDoc with NPPC042KFMS-RC from fastcar.SchLib
Replace Part J*? NPPC042KFMS-RC in Z:\3dprinter\fastcar\pcbdesign\Sheet4_GenIo.SchDoc with NPPC042KFMS-RC from fastcar.SchLib
Replace Part J? Wiznet Module (Qty 2 6 Pin .1 Header) in Z:\3dprinter\fastcar\pcbdesign\Sheet4_GenIo.SchDoc with Wiznet Module (Qty 2 6 Pin .1 Header) from fastcar.SchLib
Replace Part J? Header 5X2 in Z:\3dprinter\fastcar\pcbdesign\Sheet4_GenIo.SchDoc with Header 5X2 from Miscellaneous Connectors.IntLib
Replace Part J? Header 5X2 in Z:\3dprinter\fastcar\pcbdesign\Sheet4_GenIo.SchDoc with Header 5X2 from Miscellaneous Connectors.IntLib
Replace Part O? FXO-HC536R-12 in Z:\3dprinter\fastcar\pcbdesign\Sheet4_GenIo.SchDoc with FXO-HC536R-12 from fastcar.SchLib
Replace Part O? FXO-HC536R-3.072 in Z:\3dprinter\fastcar\pcbdesign\Sheet4_GenIo.SchDoc with FXO-HC536R-3.072 from fastcar.SchLib
Replace Part P? CONN_54819-0578_2 in Z:\3dprinter\fastcar\pcbdesign\Sheet4_GenIo.SchDoc with CONN_54819-0578_2 from fastcar.SchLib
