Change Component Designator: Old Designator=*? New Designator=*45
Change Component Designator: Old Designator=*? New Designator=*46
Change Component Designator: Old Designator=*? New Designator=*47
Change Component Designator: Old Designator=*? New Designator=*48
Change Component Designator: Old Designator=*? New Designator=*49
Change Component Designator: Old Designator=*? New Designator=*50
Change Component Designator: Old Designator=*? New Designator=*51
Change Component Designator: Old Designator=*? New Designator=*52
Change Component Designator: Old Designator=*? New Designator=*53
Change Component Designator: Old Designator=*? New Designator=*54
Change Component Designator: Old Designator=*? New Designator=*55
Change Component Designator: Old Designator=*? New Designator=*56
Change Component Designator: Old Designator=*? New Designator=*57
Change Component Designator: Old Designator=*? New Designator=*58
Change Component Designator: Old Designator=*? New Designator=*59
Change Component Designator: Old Designator=*? New Designator=*60
Change Component Designator: Old Designator=*? New Designator=*61
Change Component Designator: Old Designator=J? New Designator=J5
Change Component Designator: Old Designator=J? New Designator=J6
Change Component Designator: Old Designator=J? New Designator=J7
Change Component Designator: Old Designator=J? New Designator=J8
Change Component Designator: Old Designator=J? New Designator=J9
Change Component Designator: Old Designator=J? New Designator=J10
Change Component Designator: Old Designator=J? New Designator=J11
Change Component Designator: Old Designator=J? New Designator=J12
Change Component Designator: Old Designator=J? New Designator=J13
Change Component Designator: Old Designator=J? New Designator=J14
Change Component Designator: Old Designator=J? New Designator=J15
Change Component Designator: Old Designator=J? New Designator=J16
Change Component Designator: Old Designator=J? New Designator=J17
Change Component Designator: Old Designator=J? New Designator=J18
Change Component Designator: Old Designator=J? New Designator=J19
Change Component Designator: Old Designator=J? New Designator=J20
Change Component Designator: Old Designator=J? New Designator=J21
Change Component Designator: Old Designator=J? New Designator=J22
