Replace Part P1 CopperScrewM3 in Z:\3dprinter\fastcar\pcbdesign\Sheet0_Top.SchDoc with CopperScrewM3 from fastcar.SchLib
Replace Part P2 CopperScrewM3 in Z:\3dprinter\fastcar\pcbdesign\Sheet0_Top.SchDoc with CopperScrewM3 from fastcar.SchLib
Replace Part P3 CopperScrewM3 in Z:\3dprinter\fastcar\pcbdesign\Sheet0_Top.SchDoc with CopperScrewM3 from fastcar.SchLib
Replace Part P4 CopperScrewM3 in Z:\3dprinter\fastcar\pcbdesign\Sheet0_Top.SchDoc with CopperScrewM3 from fastcar.SchLib
Replace Part P5 CopperScrewM3 in Z:\3dprinter\fastcar\pcbdesign\Sheet0_Top.SchDoc with CopperScrewM3 from fastcar.SchLib
Replace Part P6 CopperScrewM3 in Z:\3dprinter\fastcar\pcbdesign\Sheet0_Top.SchDoc with CopperScrewM3 from fastcar.SchLib
Replace Part P7 CopperScrewM3 in Z:\3dprinter\fastcar\pcbdesign\Sheet0_Top.SchDoc with CopperScrewM3 from fastcar.SchLib
Replace Part P8 CopperScrewM3 in Z:\3dprinter\fastcar\pcbdesign\Sheet0_Top.SchDoc with CopperScrewM3 from fastcar.SchLib
Replace Part P9 CopperScrewM3 in Z:\3dprinter\fastcar\pcbdesign\Sheet0_Top.SchDoc with CopperScrewM3 from fastcar.SchLib
Replace Part P10 CopperScrewM3 in Z:\3dprinter\fastcar\pcbdesign\Sheet0_Top.SchDoc with CopperScrewM3 from fastcar.SchLib
Replace Part P11 CopperScrewM3 in Z:\3dprinter\fastcar\pcbdesign\Sheet0_Top.SchDoc with CopperScrewM3 from fastcar.SchLib
